<svg width="138" height="30" viewBox="0 0 138 30" fill="none" xmlns="http://www.w3.org/2000/svg">
<path d="M111.104 29.6959H102.309L123.789 2.10889H132.585L111.104 29.6959Z" fill="#BFD8D8"/>
<path d="M127.697 30H137.999L124.711 15.95L120.078 21.8207" fill="#BFD8D8"/>
<path d="M109.222 0H96.998L111.661 14.05L116.595 7.81822" fill="#BFD8D8"/>
<path d="M0 9.44253V7.91309H16.1788V9.44253H9.05939V23.0271H7.10061V9.44253H0Z" fill="#BFD8D8"/>
<path d="M35.2866 23.0271L27.2913 16.3773H21.9988V23.0271H20.04V14.8478H34.4767C34.7935 14.8544 35.1029 14.7504 35.3525 14.5534C35.4574 14.4867 35.5453 14.396 35.6091 14.2888C35.6729 14.1815 35.7108 14.0606 35.7198 13.9359V10.136C35.7188 10.0869 35.7074 10.0386 35.6863 9.9943C35.6651 9.95004 35.6348 9.91089 35.5973 9.87952C35.5013 9.79446 35.3934 9.72405 35.2771 9.67052C35.1379 9.60116 34.9929 9.54395 34.844 9.49953C34.7372 9.46529 34.6263 9.44611 34.5144 9.44253H20.04V7.91309H35.004C35.2935 7.91892 35.58 7.97351 35.8516 8.07458C36.1648 8.18937 36.4598 8.34937 36.7274 8.54956C36.991 8.73689 37.2177 8.97205 37.396 9.24304C37.57 9.50761 37.6618 9.81852 37.6597 10.136V14.1924C37.6629 14.5043 37.578 14.8108 37.4149 15.0758C37.2499 15.3422 37.0395 15.577 36.7933 15.7693C36.5394 15.9724 36.2527 16.1298 35.9458 16.2348C35.6427 16.3401 35.3246 16.3946 35.004 16.3963H30.0694L38.1117 23.0461L35.2866 23.0271Z" fill="#BFD8D8"/>
<path d="M59.3292 23.0271H44.158C43.8685 23.0214 43.582 22.9668 43.3104 22.8656C43.0015 22.7562 42.7097 22.6026 42.4441 22.4096C42.18 22.2228 41.9532 21.9875 41.7754 21.7161C41.6014 21.4515 41.5096 21.1406 41.5118 20.8231V7.91309H43.5365V20.8326C43.5365 21.0036 43.6652 21.1461 43.9226 21.2601C44.1579 21.3689 44.4041 21.4517 44.6571 21.5071H57.3987V7.91309H59.3292V23.0271Z" fill="#BFD8D8"/>
<path d="M64.8385 16.1493C64.5412 16.0463 64.264 15.892 64.0192 15.6933C63.785 15.503 63.5871 15.2712 63.4353 15.0093C63.2816 14.7411 63.2034 14.4356 63.2093 14.1259V10.0695C63.2055 9.75475 63.2976 9.4464 63.473 9.18604C63.6576 8.93641 63.8839 8.72105 64.1416 8.54956C64.3947 8.34575 64.6774 8.18235 64.9797 8.06508C65.2526 7.97 65.5386 7.91871 65.8273 7.91309H81.0456V9.44253H66.317C66.2051 9.44635 66.0942 9.46553 65.9874 9.49953C65.8518 9.53969 65.7196 9.59051 65.5919 9.65152C65.4756 9.70517 65.3678 9.77557 65.2717 9.86052C65.2342 9.89189 65.2039 9.93104 65.1827 9.9753C65.1616 10.0196 65.1502 10.0679 65.1492 10.117V14.2494C65.1492 14.3729 65.2717 14.5059 65.5259 14.6293C65.7724 14.7599 66.0405 14.8436 66.317 14.8763H78.3805C78.7002 14.8786 79.0177 14.9298 79.3222 15.0283C79.6257 15.1239 79.9119 15.2683 80.1698 15.4558C80.4172 15.6353 80.6282 15.8611 80.7913 16.1208C80.9556 16.3818 81.0407 16.6856 81.0361 16.9948V20.8706C81.0383 21.1881 80.9464 21.499 80.7725 21.7636C80.5943 22.0347 80.3676 22.2699 80.1038 22.4571C79.838 22.6498 79.5462 22.8033 79.2374 22.9131C78.9659 23.0143 78.6794 23.0689 78.3899 23.0746H63.2093V21.4976H77.9473C78.0592 21.4941 78.1702 21.475 78.2769 21.4406C78.4124 21.4002 78.5446 21.3494 78.6724 21.2886C78.7888 21.2353 78.8967 21.1649 78.9926 21.0796C79.0301 21.0482 79.0604 21.0091 79.0815 20.9648C79.1026 20.9206 79.1141 20.8722 79.115 20.8231V17.0233C79.0151 16.8436 78.8642 16.698 78.6818 16.6053C78.4632 16.4609 78.2086 16.3818 77.9473 16.3773H65.7802C65.4595 16.3778 65.141 16.3232 64.8385 16.2158" fill="#BFD8D8"/>
<path d="M84.9062 9.44253V7.91309H101.085V9.44253H93.9656V23.0271H92.0069V9.44253H84.9062Z" fill="#BFD8D8"/>
</svg>
