<svg width="31" height="30" viewBox="0 0 31 30" fill="none" xmlns="http://www.w3.org/2000/svg">
<g clip-path="url(#clip0)">
<path d="M1.26904 1.28491H29.1857V28.7152H1.26904V1.28491Z" fill="#393939"/>
<path d="M0 0.00317383V29.997H30.4545V0.00317383H0ZM1.26894 1.28496H29.1856V28.7152H1.26894V1.28496Z" fill="#BFD8D8"/>
<path d="M22.1175 12.603C21.9272 12.5133 21.6861 12.4748 21.3815 12.4748C19.7827 12.4748 18.7168 13.7181 18.7168 15.7818C18.7168 18.1403 19.8081 19.0888 21.2293 19.0888C21.5338 19.0888 21.8637 19.0504 22.1048 18.9478V12.603H22.1175ZM16.4327 15.8844C16.4327 12.8978 18.3361 10.565 21.4577 10.565C21.7242 10.565 21.8637 10.5649 22.1175 10.5906V7.25794C22.1175 7.18103 22.181 7.12976 22.2444 7.12976H24.2874C24.3889 7.12976 24.4143 7.16822 24.4143 7.2323V18.9478C24.4143 19.2939 24.4143 19.7297 24.4778 20.204C24.4778 20.2937 24.4778 20.3065 24.4016 20.345C23.3357 20.8577 22.219 21.0884 21.1531 21.0884C18.3995 21.0884 16.4327 19.3708 16.4327 15.8844ZM12.1056 13.8079L15.6586 20.768C15.7221 20.8705 15.684 20.9731 15.5825 20.9731H13.3745C13.2349 20.9731 13.1715 20.9346 13.1081 20.8064C12.2959 19.1145 11.4711 17.3584 10.6209 15.5383H10.5956C9.83419 17.2559 8.99669 19.1273 8.18457 20.8192C8.12112 20.9218 8.05768 20.9602 7.95616 20.9602H5.84972C5.72283 20.9602 5.71014 20.8577 5.77359 20.7808L9.25048 14.0258L5.88779 7.30921C5.81166 7.20667 5.88779 7.11694 5.97662 7.11694H8.15919C8.28609 7.11694 8.34953 7.14258 8.3876 7.25794C9.18703 8.96272 9.99916 10.6419 10.7605 12.3595H10.7859C11.5219 10.6675 12.334 8.96272 13.1081 7.28358C13.1715 7.18103 13.2096 7.11694 13.3365 7.11694H15.3795C15.481 7.11694 15.519 7.19385 15.4556 7.30921L12.1056 13.8079Z" fill="#BFD8D8"/>
</g>
<defs>
<clipPath id="clip0">
<rect width="30.4545" height="30" fill="white"/>
</clipPath>
</defs>
</svg>
