<svg width="31" height="30" viewBox="0 0 31 30" fill="none" xmlns="http://www.w3.org/2000/svg">
<g clip-path="url(#clip0)">
<path d="M1.2915 1.28491H29.7083V28.7153H1.2915V1.28491Z" fill="#393939"/>
<path d="M1.29165 1.28495H29.7084V28.7153H1.29165V1.28495ZM0 29.9971H31.0001V0.00317383H0V29.9971ZM21.9325 14.4618C22.5912 14.4618 22.8237 14.4618 22.8883 14.4362C22.8883 14.3464 22.9141 14.2823 22.9141 14.2182C22.9141 13.5261 22.5783 12.2443 21.235 12.2443C19.995 12.2443 19.4654 13.3209 19.3362 14.4618H21.9325ZM19.3105 16.2178C19.3363 17.9483 20.163 19.1147 22.1263 19.1147C22.8884 19.1147 23.5471 19.0122 24.2317 18.7174C24.3221 18.6789 24.3868 18.6917 24.3868 18.8071V20.4093C24.3868 20.5375 24.348 20.6016 24.2576 20.6657C23.573 20.9989 22.7205 21.1528 21.6613 21.1528C18.2514 21.1528 16.9726 18.6533 16.9726 15.8718C16.9726 12.8468 18.5485 10.373 21.3256 10.373C24.1414 10.373 25.1231 12.7186 25.1231 14.6285C25.1231 15.2438 25.0843 15.7437 25.0198 15.9872C24.9939 16.0898 24.9552 16.1283 24.8518 16.1539C24.5935 16.1923 23.8314 16.2435 22.6947 16.2435H19.3105V16.2178ZM12.3872 14.9104C12.0255 13.4876 11.1471 10.3857 10.8242 8.88598H10.7984C10.5271 10.3857 9.81667 12.9236 9.2871 14.9104H12.3872ZM8.75748 16.9869L7.7371 20.8195C7.71127 20.922 7.67252 20.9605 7.54332 20.9605H5.64456C5.51541 20.9605 5.48953 20.922 5.51541 20.7682L9.18373 8.04C9.2483 7.80931 9.28705 7.62983 9.31288 6.98897C9.31288 6.89926 9.35162 6.86081 9.4162 6.86081H12.1287C12.2191 6.86081 12.2579 6.88644 12.2837 6.98897L16.3912 20.7939C16.417 20.8963 16.3912 20.9605 16.2879 20.9605H14.1567C14.0533 20.9605 13.9887 20.922 13.9629 20.8324L12.9037 16.987H8.75748V16.9869Z" fill="#BFD8D8"/>
</g>
<defs>
<clipPath id="clip0">
<rect width="31" height="30" fill="white"/>
</clipPath>
</defs>
</svg>
