<svg width="123" height="30" viewBox="0 0 123 30" fill="none" xmlns="http://www.w3.org/2000/svg">
<path d="M32.136 16.863C32.136 17.0837 31.952 17.2634 31.7323 17.2634H23.9551C24.1492 19.1935 25.5953 20.9542 27.6291 20.9542C29.019 20.9542 30.0512 20.4203 30.8279 19.3064C30.9403 19.1524 31.1089 19.0549 31.3235 19.1473C31.441 19.1986 31.5228 19.3064 31.5432 19.4296C31.5637 19.5579 31.5279 19.6298 31.4921 19.7017C30.7103 21.0722 29.1518 21.7447 27.624 21.7447C25.0077 21.7447 23.1426 19.3937 23.1426 16.8784C23.1426 14.3632 25.0077 12.0122 27.624 12.0122C30.2402 12.007 32.1309 14.3529 32.136 16.863ZM31.3031 16.4832C31.1344 14.5531 29.6628 12.7924 27.6291 12.7924C25.5953 12.7924 24.1492 14.5531 23.9551 16.4832H31.3031ZM41.574 12.2021C41.7988 12.2021 41.9623 12.3971 41.9623 12.5922C41.9623 12.8181 41.7937 12.9823 41.574 12.9823H39.4891V21.2006C39.4891 21.3956 39.3205 21.5907 39.1008 21.5907C38.8759 21.5907 38.7124 21.3956 38.7124 21.2006V12.9823H36.7093C36.4845 12.9823 36.321 12.8129 36.321 12.5922C36.321 12.3971 36.4896 12.2021 36.7093 12.2021H38.7124V9.19404C38.7124 9.00412 38.8402 8.82959 39.0241 8.79879C39.2847 8.75772 39.4891 8.93739 39.4891 9.18378V12.2021H41.574ZM54.2925 16.1752V21.1544C54.2925 21.3802 54.0983 21.5445 53.9041 21.5445C53.6793 21.5445 53.5158 21.3751 53.5158 21.1544V16.1752C53.5158 14.4966 52.5704 12.8181 50.7053 12.8181C48.3139 12.8181 47.2817 14.9175 47.4197 17.0683C47.4197 17.1248 47.4452 17.3763 47.4452 17.402V21.139C47.4452 21.3289 47.3175 21.5034 47.1335 21.5342C46.8729 21.5753 46.6685 21.3956 46.6685 21.1492V4.79491C46.6685 4.59984 46.8371 4.40479 47.0569 4.40479C47.2817 4.40479 47.4452 4.59984 47.4452 4.79491V14.05C48.1146 12.8489 49.3103 12.0378 50.7002 12.0378C52.9843 12.0378 54.2925 14.05 54.2925 16.1752ZM68.2374 16.863C68.2374 17.0837 68.0534 17.2634 67.8337 17.2634H60.0513C60.2455 19.1935 61.6916 20.9542 63.7253 20.9542C65.1152 20.9542 66.1474 20.4203 66.9241 19.3064C67.0365 19.1524 67.2052 19.0549 67.4198 19.1473C67.5373 19.1986 67.6191 19.3064 67.6395 19.4296C67.6599 19.5579 67.6242 19.6298 67.5884 19.7017C66.8066 21.0722 65.2481 21.7447 63.7202 21.7447C61.104 21.7447 59.2388 19.3937 59.2388 16.8784C59.2388 14.3632 61.104 12.0122 63.7202 12.0122C66.3416 12.007 68.2323 14.3529 68.2374 16.863ZM67.3993 16.4832C67.2307 14.5531 65.7591 12.7924 63.7253 12.7924C61.6916 12.7924 60.2455 14.5531 60.0513 16.4832H67.3993ZM77.7826 12.5665C77.7826 12.8181 77.6447 12.9567 77.4198 12.9875C75.1357 13.3211 74.1086 15.1947 74.1086 17.3763V21.1133C74.1086 21.3032 73.9809 21.4777 73.7969 21.5085C73.5363 21.5496 73.3319 21.37 73.3319 21.1236V12.6076C73.3319 12.4177 73.4597 12.2432 73.6436 12.2124C73.9042 12.1713 74.1086 12.351 74.1086 12.5973V14.3324C74.7474 13.2441 76.0299 12.2072 77.3636 12.2072C77.5578 12.2021 77.7826 12.3458 77.7826 12.5665ZM90.5574 16.863C90.5574 17.0837 90.3734 17.2634 90.1537 17.2634H82.3764C82.5706 19.1935 84.0167 20.9542 86.0504 20.9542C87.4403 20.9542 88.4725 20.4203 89.2492 19.3064C89.3616 19.1524 89.5303 19.0549 89.7449 19.1473C89.8624 19.1986 89.9442 19.3064 89.9646 19.4296C89.9851 19.5579 89.9493 19.6298 89.9135 19.7017C89.1317 21.0722 87.5732 21.7447 86.0453 21.7447C83.4291 21.7447 81.564 19.3937 81.564 16.8784C81.564 14.3632 83.4291 12.0122 86.0453 12.0122C88.6616 12.007 90.5523 14.3529 90.5574 16.863ZM89.7245 16.4832C89.5558 14.5531 88.0842 12.7924 86.0504 12.7924C84.0167 12.7924 82.5706 14.5531 82.3764 16.4832H89.7245ZM103.112 12.6641V21.2006C103.112 21.4264 102.918 21.5907 102.724 21.5907C102.499 21.5907 102.336 21.4213 102.336 21.2006V19.5785C101.697 20.8669 100.552 21.7857 99.1062 21.7857C96.7965 21.7857 95.514 19.7735 95.514 17.6484V12.6435C95.514 12.4485 95.6826 12.2534 95.9023 12.2534C96.1272 12.2534 96.2907 12.4485 96.2907 12.6435V17.6484C96.2907 19.3269 97.236 21.0055 99.1011 21.0055C101.717 21.0055 102.331 18.5467 102.331 15.8312V12.6435C102.331 12.4177 102.555 12.1867 102.831 12.2688C103 12.3253 103.112 12.4895 103.112 12.6641ZM122.785 16.1444V21.1492C122.785 21.3751 122.591 21.5393 122.397 21.5393C122.172 21.5393 122.009 21.37 122.009 21.1492V16.1444C122.009 14.4658 121.063 12.8181 119.198 12.8181C116.858 12.8181 115.969 15.3333 115.969 17.2891V21.1492C115.969 21.3751 115.775 21.5393 115.581 21.5393C115.356 21.5393 115.192 21.37 115.192 21.1492V16.1444C115.192 14.4658 114.247 12.8181 112.382 12.8181C110.016 12.8181 109.04 14.6917 109.127 17.1813C109.127 17.2377 109.152 17.3507 109.127 17.3763V21.139C109.127 21.3289 108.999 21.5034 108.81 21.5342C108.549 21.5753 108.345 21.3956 108.345 21.1492V12.6076C108.345 12.4177 108.473 12.2432 108.657 12.2124C108.917 12.1713 109.122 12.351 109.122 12.5973V14.0244C109.791 12.8232 110.987 12.0378 112.377 12.0378C113.961 12.0378 115.187 13.0439 115.688 14.5274C116.327 13.0747 117.578 12.0378 119.193 12.0378C121.477 12.0378 122.785 14.0192 122.785 16.1444Z" fill="white"/>
<g opacity="0.6">
<path opacity="0.6" d="M9.22801 11.0715L0 15.2658L9.22801 20.7144L18.4524 15.2658L9.22801 11.0715Z" fill="#010101"/>
</g>
<g opacity="0.45">
<path d="M0 15.2752L9.16667 20.7143V0L0 15.2752Z" fill="white"/>
</g>
<g opacity="0.8">
<path d="M9.1665 0V20.7143L18.4522 15.2752L9.1665 0Z" fill="white"/>
</g>
<g opacity="0.45">
<path opacity="0.45" d="M0 17.0239L9.16667 30.0001V22.4657L0 17.0239Z" fill="white"/>
</g>
<g opacity="0.8">
<path opacity="0.8" d="M9.1665 22.4657V30.0001L18.4522 17.0239L9.1665 22.4657Z" fill="white"/>
</g>
<path d="M0 15.3076L9.23357 11.0769L18.4509 15.2914L9.23357 20.7433L0 15.3076Z" fill="white"/>
<path d="M9.23361 15.2915L9.23361 11.0769L18.451 15.2915L9.23362 20.7434L9.23361 15.2915Z" fill="#AFAFAF"/>
</svg>
