<svg width="81" height="30" viewBox="0 0 81 30" fill="none" xmlns="http://www.w3.org/2000/svg">
<g clip-path="url(#clip0)">
<path d="M10.2201 26.7135C8.91759 25.7059 7.52781 24.7403 6.57835 23.3798C4.57964 20.9805 3.04117 18.2033 1.98938 15.2843C1.35347 13.3861 1.13571 11.3511 0.315442 9.52651C-0.541433 8.20089 0.463064 6.75284 1.93955 6.33168C2.59643 6.20714 3.75216 5.59734 2.35703 6.03374C1.10605 6.9357 0.985552 5.21401 2.26806 5.10498C3.14337 4.99082 3.4656 4.28656 3.16595 3.65259C2.22598 3.04962 5.4444 2.38805 3.82483 1.48859C2.13887 -0.300626 6.18411 -0.645069 5.18589 1.3873C4.9473 2.94991 8.01355 1.10027 7.3015 2.90511C8.02491 3.772 10.0097 3.10282 9.95989 4.31822C11.0134 4.38942 11.3751 5.26052 12.363 5.32751C13.3886 5.78283 15.246 6.14093 15.5944 7.2766C14.5777 8.06782 12.2242 5.642 12.1105 7.83254C12.418 11.0692 12.3396 14.4031 13.5434 17.4851C14.1128 19.351 15.4939 20.8198 16.7405 22.2734C17.9339 23.6966 19.55 24.6992 21.1976 25.5427C22.6424 26.2127 24.2001 26.6567 25.7752 26.936C26.4138 26.4557 27.5415 24.6699 28.5373 25.4224C28.5854 26.2696 26.5606 27.192 28.4423 27.0984C29.5482 26.7702 30.3143 27.9383 31.2245 26.8844C32.0632 27.8612 34.71 26.2608 34.1135 28.2572C33.3063 28.7692 32.1296 28.4599 31.3216 29.1644C29.9894 28.5098 28.9287 29.7494 27.4533 29.593C25.8154 29.8815 24.1484 29.9976 22.488 30C19.7632 29.7886 16.9809 29.6994 14.3889 28.7665C12.9284 28.3492 11.5036 27.5314 10.2201 26.7135ZM12.5212 27.6945C13.9469 28.3001 15.3412 28.9392 16.904 29.1325C19.3832 29.471 21.9436 29.9932 24.4315 29.5174C23.3056 29.0175 22.141 29.7115 21.0194 29.16C19.6741 29.4443 18.2302 29.087 16.8619 28.9108C15.3069 28.2298 13.6281 27.7616 12.1718 26.8766C10.3512 26.2231 13.1127 27.7151 13.6045 27.8364C14.7419 28.4709 12.3534 27.5106 12.016 27.247C11.0632 26.7212 10.9419 26.8312 11.922 27.3647C12.1193 27.4782 12.3142 27.5976 12.5212 27.6945ZM9.80786 25.809C11.1899 26.3124 9.80172 24.8537 9.16928 24.938C8.88873 24.4595 8.09745 24.1571 8.65561 23.9003C7.65191 24.2431 7.60382 22.5971 7.13223 22.8326C6.06989 22.5028 6.71889 21.3344 5.45308 20.6165C5.33766 19.8603 4.19596 19.2049 3.83258 18.065C3.67187 17.4809 2.54233 15.8051 3.23595 17.3648C3.82644 18.8663 4.86513 20.1533 5.73002 21.4375C6.40094 22.6605 7.19422 23.9398 8.41634 24.7026C8.82875 25.0917 9.22606 25.687 9.80773 25.809H9.80786ZM5.82795 21.5114C6.08044 21.9554 5.87578 21.306 5.82795 21.5114V21.5114ZM11.4634 26.412C11.023 26.242 11.769 26.2772 11.4634 26.412V26.412ZM12.2128 26.681C11.8704 26.8888 12.1352 26.3098 12.2128 26.681V26.681ZM13.152 27.0659C12.4627 26.8019 13.5983 26.6473 13.152 27.0659V27.0659ZM14.7611 27.9478C13.8918 27.7993 15.0327 27.5536 14.7611 27.9478V27.9478ZM11.6714 25.8298C10.7741 25.8236 12.3647 25.3881 11.6714 25.8298V25.8298ZM12.3754 26.175C12.1247 26.2797 12.3552 25.9421 12.3754 26.175V26.175ZM15.895 28.3353C16.461 28.6867 19.1998 29.105 17.485 28.4796C17.1974 28.5389 14.3051 27.6747 15.895 28.3353ZM10.3076 24.0558C9.42859 23.7973 10.2526 23.8224 10.3076 24.0558V24.0558ZM11.9455 24.9957C11.0606 24.7698 12.3726 24.7028 11.9455 24.9957V24.9957ZM13.3239 25.8264C12.3317 25.5987 13.9363 25.5996 13.3239 25.8264V25.8264ZM9.6402 23.3419C10.3042 23.8426 12.3188 23.4063 10.657 23.0431C9.90138 22.647 8.19791 22.3757 9.35912 23.2819L9.6402 23.3419ZM14.258 26.1131C13.0978 25.8484 14.5348 25.6501 14.258 26.1131V26.1131ZM12.8549 25.0169C14.4781 25.468 11.4895 24.0067 12.4541 24.8503L12.6683 24.9457L12.8549 25.0169ZM15.6681 26.6156C14.279 26.407 17.2055 26.6301 15.6681 26.6156V26.6156ZM9.04891 22.4673C8.66977 22.4907 8.98853 22.1857 9.04891 22.4673V22.4673ZM18.2687 28.0501C17.7672 28.429 18.3097 27.5417 18.2687 28.0501V28.0501ZM11.6731 24.0471C11.1927 24.036 11.5796 23.7791 11.6731 24.0471V24.0471ZM9.19466 22.2905C7.98563 21.9082 10.0772 22.2382 9.19466 22.2905V22.2905ZM6.25852 20.4246C5.29851 19.6766 6.14858 20.0081 6.25852 20.4246V20.4246ZM13.9663 25.2344C13.8901 25.2738 13.8046 25.053 13.9663 25.2344V25.2344ZM18.763 28.1293C18.5018 28.2339 18.7483 27.8518 18.763 28.1293V28.1293ZM13.5417 24.8031C12.7888 24.6948 13.6283 24.4458 13.5417 24.8031V24.8031ZM9.96777 22.5757C8.91505 22.1393 10.6248 22.5068 9.96777 22.5757V22.5757ZM16.0132 26.2696C15.0155 26.0753 17.0369 25.8709 16.0132 26.2696V26.2696ZM12.869 24.171C14.0483 24.3202 11.4652 23.3815 12.6096 24.0867L12.869 24.171ZM16.9677 26.6491C18.0695 26.0024 17.7061 28.1653 18.8366 26.8321C19.9512 26.0315 17.8738 27.8217 19.2471 26.9748C20.2412 26.3209 21.7087 27.2848 22.6357 27.5984C23.3021 27.5666 23.9504 28.1653 24.6343 27.8009C25.9499 27.4521 22.0609 27.284 23.0802 26.6662C21.8765 27.0109 20.9873 26.2557 20.395 25.4971C19.0443 25.1904 17.4833 24.5119 16.8089 23.3359C16.5337 22.8953 17.2057 23.3987 16.5713 22.6771C15.758 21.9657 15.3519 21.1573 14.8058 20.2924C14.1532 19.9505 14.0763 18.9429 14.0107 20.259C14.0161 19.4283 13.2228 18.869 13.0288 19.101C13.0254 18.3011 13.8781 18.7023 13.2813 18.1105C13.1531 17.2815 12.7301 16.4175 12.6033 15.4811C12.4061 15.0301 12.5753 14.0638 11.9291 15.085C11.6939 16.1649 11.8513 13.7588 12.2174 14.5517C12.6978 13.7425 12.0442 13.8377 12.018 13.9495C12.3309 13.2667 12.2164 12.2976 11.936 12.667C12.1029 11.9427 12.1999 10.0023 11.6871 10.3468C11.998 9.58918 12.2768 6.88132 10.926 7.91412C10.3792 7.92174 9.43153 8.1092 8.98425 8.32819C10.3881 9.08933 8.84264 8.60301 8.27046 8.48189C8.19618 9.18628 7.63014 8.88216 6.92249 8.88899C8.05297 9.0264 6.37208 10.0253 5.72495 9.63726C4.88277 10.0324 6.4509 11.0203 5.74151 11.326C5.82902 11.7856 4.45206 11.1595 4.5596 12.2229C3.74267 11.8843 4.44779 13.4839 4.85658 12.9428C6.2465 13.313 5.83503 14.1557 5.8699 14.9571C5.64359 15.4234 4.75171 13.8602 5.67151 13.9324C4.94556 12.7734 4.86888 13.5131 4.26596 14.0517C4.12622 14.0905 5.8035 14.8178 4.75091 15.177C5.67685 15.3179 5.70397 16.1151 5.89274 16.6194C6.44916 17.1895 6.33454 15.9895 7.00131 16.6752C6.57915 16.0644 4.76828 14.9543 6.22646 15.3103C6.21845 14.6961 5.96248 14.2003 6.40975 14.2122C6.85275 13.4246 5.94591 16.1554 6.9436 15.1539C7.21947 15.0354 7.28867 14.3653 7.78484 15.2174C8.50545 15.915 8.04522 16.4198 7.0283 15.7809C7.20998 16.3882 8.38842 16.6045 8.16652 17.5539C8.40138 18.3889 8.73002 18.0812 9.01645 18.0332C9.24089 18.8441 9.36874 18.2479 9.37916 17.8613C10.4073 18.0781 10.1662 18.6758 10.4884 19.0933C11.1968 19.4075 9.47428 16.962 10.6904 18.3579C11.97 19.4943 11.1708 19.9685 10.0221 19.7865C10.7489 19.7287 10.9828 20.753 11.8925 20.7168C12.7214 21.105 13.2832 22.5946 11.854 21.9743C11.3586 21.5345 9.60346 20.9925 11.0372 21.8283C12.3598 22.4313 13.4116 22.7913 14.6878 23.5482C15.6008 24.189 15.9954 24.9232 16.3414 25.0686C15.5737 25.4292 14.0284 24.7808 15.1761 24.5824C14.4598 24.4544 13.6544 24.098 14.3401 24.975C14.9236 25.4543 16.4061 25.4035 16.6726 25.4576C16.4472 25.9456 16.0603 25.9844 16.6813 26.0221C15.9885 26.3854 16.9041 26.4422 16.9679 26.6491H16.9677ZM15.5508 22.714C15.1289 22.2802 15.0198 21.4685 15.4757 22.1744C15.7099 22.2672 16.2245 23.5018 15.5508 22.714ZM20.1661 25.5969C20.1739 25.7934 20.429 25.5798 20.1661 25.5969V25.5969ZM14.8854 21.6506C15.0371 22.1564 14.8686 20.9951 14.8854 21.6506V21.6506ZM14.4266 21.0441C15.0949 21.3293 13.8956 20.0365 14.4266 21.0441V21.0441ZM8.86709 17.2714C9.02086 17.7951 9.17903 17.1895 8.86709 17.2714V17.2714ZM13.2919 19.6293C13.5164 20.2221 13.4832 18.9222 13.2919 19.6293V19.6293ZM10.1662 17.4919C10.6267 17.858 9.94613 17.102 10.1662 17.4919V17.4919ZM12.8481 18.3373C12.3458 17.2309 13.2045 17.7325 12.9599 18.5186L12.8481 18.3373ZM8.2225 15.304C7.99806 14.9408 7.62667 13.8755 7.74637 13.5501C7.85378 14.0801 8.89167 15.8299 8.25469 14.2752C7.55159 12.972 9.09607 14.6976 9.25505 15.0233C9.32933 15.3463 8.82087 14.9349 9.165 15.6933C8.53698 14.8299 8.79455 16.1701 8.2225 15.304ZM6.7933 14.3352C7.12007 14.9141 6.85182 13.4908 6.7933 14.3352V14.3352ZM7.43629 14.5533C7.95598 15.4416 7.74289 13.9161 7.43629 14.5533V14.5533ZM5.88914 13.3766C5.35703 12.8559 4.97174 12.3766 5.91439 13.0534C6.27696 13.0672 5.10734 11.9635 6.00189 12.703C6.94173 12.8715 6.4656 14.2193 5.88914 13.3766ZM6.70152 13.356C6.86584 13.6523 7.01093 13.0545 6.70152 13.356V13.356ZM7.2021 13.5131C7.77081 13.8757 6.73292 12.6498 7.2021 13.5131V13.5131ZM6.20803 12.5795C4.661 11.2246 8.15169 13.2871 6.46052 12.8301L6.20803 12.5795ZM10.6414 15.1117C9.97138 14.7173 10.4631 12.3329 10.6921 13.9633C11.343 13.7561 10.6561 14.806 11.141 14.7956C11.0651 15.4577 10.8476 15.696 10.6414 15.1117ZM12.2811 16.0652C12.4191 16.5567 12.3466 15.3463 12.2811 16.0652V16.0652ZM11.9964 15.7877C12.0034 16.1494 12.0697 15.4811 11.9964 15.7877V15.7877ZM6.51102 12.1344C5.51708 10.7857 9.4 13.4984 7.148 12.4764C6.91287 12.4154 6.62912 12.3939 6.51102 12.1344ZM9.66906 13.7804C9.8788 13.9683 9.57487 12.6448 9.66906 13.7804V13.7804ZM12.0661 15.2929C12.0803 15.7208 12.2513 14.6461 12.0661 15.2929V15.2929ZM6.66398 11.6198C7.2546 11.4953 9.1117 12.6395 7.4065 11.9463C7.21706 11.74 6.81254 11.8337 6.66398 11.6197V11.6198ZM11.7367 14.1058C11.7999 12.9445 12.0899 13.4126 11.7394 14.2725L11.7367 14.1057V14.1058ZM7.10338 11.2154C7.34438 10.8682 6.46373 9.64593 7.22989 10.7771C7.5612 11.0357 8.18816 11.2101 7.63441 11.3191C8.50532 12.0744 7.42227 11.5237 7.10338 11.2154ZM11.4859 13.7434C11.6329 14.5182 11.6521 12.4205 11.4859 13.7434V13.7434ZM6.60013 9.99378C6.69792 10.235 6.78449 9.91628 6.60013 9.99378V9.99378ZM7.74369 10.663C8.28609 11.3398 8.03787 10.0555 7.74369 10.663V10.663ZM10.968 12.4264C11.029 12.7658 10.9653 12.1937 10.968 12.4264V12.4264ZM10.781 12.0202C11.1978 12.5948 10.3337 10.9344 10.781 12.0202V12.0202ZM10.5066 11.308C10.7617 11.8715 10.4317 10.8595 10.5066 11.308V11.308ZM10.9538 10.5933C10.6464 10.0614 11.3419 8.24819 11.4197 9.37268C11.0954 10.2489 11.3262 10.7386 11.5514 9.56343C11.9692 8.63913 11.4615 11.3889 10.9538 10.5933ZM11.4134 7.89691C11.4432 8.09173 11.5473 7.73533 11.4134 7.89691V7.89691ZM10.6458 22.7689C10.6691 22.8678 10.4639 22.6126 10.6458 22.7689V22.7689ZM12.2269 23.555C13.1064 23.7776 13.1022 23.4209 12.307 23.3144C11.8799 22.9237 10.5302 22.5087 11.7384 23.2663C11.8181 23.4657 12.0706 23.4604 12.2269 23.555ZM9.10475 21.5156C9.58863 21.8714 10.9295 22.5223 9.79477 21.6515C10.1774 21.2141 9.06267 20.9814 9.43233 20.6886C8.49142 20.1223 8.68954 20.173 9.34937 20.1911C8.21889 19.6936 9.51262 19.7315 9.45156 19.4765C9.01565 19.3921 7.28586 18.7203 8.30359 19.5314C7.2693 19.0133 8.05711 19.7246 7.74449 19.6499C6.68643 19.3664 8.68634 20.442 7.5767 20.1748C8.18309 20.6472 9.20949 21.386 7.83267 20.6747C7.65191 20.9315 8.81819 21.3207 9.10462 21.5156H9.10475ZM10.7583 22.4502C9.77192 21.6711 12.7684 23.0868 10.7583 22.4502V22.4502ZM19.2233 27.4926C18.9489 27.8276 19.2495 27.1001 19.2233 27.4926V27.4926ZM20.0934 27.8526C20.5573 27.4112 20.1127 28.5569 20.8621 27.7444C20.8699 27.1627 20.8394 26.8194 20.0009 27.5261C19.7692 27.6525 19.6663 28.1875 20.0934 27.8527V27.8526ZM6.28217 19.3237C5.28355 18.7754 6.13963 18.773 6.28217 19.3237V19.3237ZM7.21065 19.9222C5.97971 19.4129 6.86558 19.3597 7.21065 19.9222V19.9222ZM12.4967 23.0567C13.0132 23.5079 14.8668 23.3875 13.1233 23.1127C12.8654 22.7373 11.4843 22.8275 12.4967 23.0567ZM19.7623 27.4697C18.9927 27.7618 20.5563 26.8142 19.7623 27.4697V27.4697ZM21.4143 28.5854C21.0719 28.6774 21.4194 28.375 21.4143 28.5854V28.5854ZM21.417 28.2908C20.5652 28.3449 22.2965 27.3752 21.417 28.2908V28.2908ZM3.99677 17.4423C3.24731 16.3908 3.53119 15.9183 2.80791 15.0593C2.67058 14.4022 1.56749 12.9126 2.23747 14.4906C2.85066 15.4141 3.03235 16.8434 3.9969 17.4423H3.99677ZM21.1408 27.9995C20.477 27.552 22.7597 26.9712 21.1408 27.9995V27.9995ZM22.3762 28.4754C21.8633 28.3327 23.1868 27.7915 22.3762 28.4754V28.4754ZM6.00683 18.1611C5.40766 18.1174 6.23849 17.8218 6.00683 18.1611V18.1611ZM22.1183 28.1506C22.9028 27.6534 21.9376 27.7297 21.976 28.1961L22.1183 28.1506ZM11.4711 21.5517C11.0563 21.5801 11.4441 21.215 11.4711 21.5517V21.5517ZM12.1289 21.9237C11.8075 21.989 11.9193 21.5079 12.1289 21.9237V21.9237ZM23.3772 28.4867C24.3826 27.7735 22.7684 28.3499 23.1666 28.6224L23.3772 28.4867ZM22.992 28.3037C22.1279 28.6025 23.8114 27.6292 22.992 28.3037V28.3037ZM24.9591 29.5912C24.291 29.4744 25.5088 29.2295 24.9591 29.5912V29.5912ZM6.51102 17.9164C7.24739 18.0786 9.45571 19.7005 8.15329 18.029C7.48599 17.8348 7.88611 16.2309 7.20557 16.5144C7.66247 17.2652 7.58098 17.5838 6.62177 17.1115C5.41728 16.5324 5.94484 17.3976 6.18091 17.6364C5.85921 17.7086 6.60534 17.9105 6.51088 17.9162L6.51102 17.9164ZM3.15379 15.3094C3.28565 14.7724 1.93861 12.3577 2.51788 14.099C2.72655 14.4641 2.70491 15.1554 3.15379 15.3094ZM9.31597 19.0451C9.29766 19.0004 8.93602 18.7333 9.31597 19.0451V19.0451ZM10.2498 19.2592C9.21737 19.028 10.2498 18.6904 10.2498 19.2592V19.2592ZM18.348 24.2783C17.7375 24.2697 18.1935 23.8899 18.348 24.2783V24.2783ZM18.7368 24.5574C18.5121 24.5995 18.6789 24.3401 18.7368 24.5574V24.5574ZM21.9463 26.546C21.561 26.5169 22.2547 26.3219 21.9463 26.546V26.546ZM4.83027 15.7303C3.88402 15.4906 5.71333 15.3943 4.83027 15.7303V15.7303ZM17.635 23.6622C17.0717 23.8024 17.6247 23.1005 17.635 23.6622V23.6622ZM4.48159 14.9304C3.95656 14.8069 5.04856 14.7426 4.48159 14.9304V14.9304ZM6.12747 15.7147C5.95366 15.7852 6.11772 15.5301 6.12747 15.7147V15.7147ZM26.2067 27.8225C26.9361 27.6773 28.5986 28.1877 28.8667 27.6328C27.981 27.6112 25.8031 27.0176 25.7 27.7735L25.894 27.8037L26.2068 27.8225H26.2067ZM6.65062 15.8445C6.19908 15.823 6.66398 15.2749 6.65062 15.8445V15.8445ZM2.32323 12.892C1.57537 12.7278 2.12672 11.8069 2.32323 12.892V12.892ZM3.35485 13.1471C2.41034 12.8335 3.36808 12.7983 3.35485 13.1471V13.1471ZM3.94454 13.4323C3.81174 13.6031 3.7742 13.2965 3.94454 13.4323V13.4323ZM7.65632 15.7731C7.24231 15.6563 7.8312 15.615 7.65632 15.7731V15.7731ZM3.5523 12.7898C2.35636 12.667 3.45197 11.9703 3.5523 12.7898V12.7898ZM1.4355 11.4393C1.22923 11.5819 1.40571 11.0614 1.4355 11.4393V11.4393ZM1.75078 11.2059C1.47998 11.2624 1.69935 10.7573 1.75078 11.2059V11.2059ZM3.48951 12.2262C4.22508 11.9427 2.15009 11.6386 3.33922 12.173L3.48951 12.2262ZM26.7651 26.3639C26.1676 26.2325 27.2359 25.9396 26.7651 26.3639V26.3639ZM29.5772 27.7967C29.1018 27.869 29.7659 27.2488 29.5772 27.7967V27.7967ZM3.66719 11.3303C3.08379 11.4359 3.74508 10.7996 3.66719 11.3303V11.3303ZM1.19262 9.70005C1.05983 8.951 1.07813 7.63576 2.34928 8.07991C0.652634 8.41148 3.52425 10.1542 3.16167 8.77812C3.87533 8.81267 4.55773 8.36339 4.18287 9.0444C5.58935 8.89241 6.56352 7.69329 7.92177 7.86171C8.97958 7.72351 10.1362 7.61947 11.2763 7.20027C12.2136 7.13407 13.1159 6.14185 12.6025 5.55346C11.3244 5.44706 9.98594 5.60417 8.57345 5.88083C7.00812 6.20031 5.58601 6.80841 4.00639 7.0697C2.46618 7.27332 4.31566 7.62971 3.8744 7.70958C3.0715 7.98361 4.83281 8.16832 3.77046 8.45772C3.11451 8.33502 2.43131 8.1134 2.71173 7.43306C1.23711 7.62196 -0.0592904 8.22323 1.10619 9.699L1.19276 9.69979L1.19262 9.70005ZM4.7473 7.92003C5.09238 6.66772 6.59919 8.951 5.31334 8.08674C5.16038 7.97324 4.90695 7.88128 4.7473 7.92003ZM4.81437 7.31259C5.07915 7.51805 5.31334 6.94766 4.81437 7.31259V7.31259ZM5.44774 7.3231C5.49343 6.74667 6.89898 7.628 5.67939 7.53014L5.44774 7.32297V7.3231ZM6.31437 6.98037C6.40628 7.30327 6.63152 6.61596 6.31437 6.98037V6.98037ZM6.5364 6.83442C7.06397 6.21161 9.5213 6.43651 7.72259 6.7732C7.24031 6.41588 6.87092 6.98365 6.5364 6.83442ZM9.744 6.3481C11.3383 6.95199 9.66465 4.64625 9.744 6.3481V6.3481ZM10.6544 6.34285C10.9871 5.48568 11.9463 5.99853 10.809 6.17023C10.8333 6.26219 10.775 6.61359 10.6544 6.34285ZM3.30849 10.8905C2.2531 10.3709 4.30243 10.2917 3.30849 10.8905V10.8905ZM4.04393 11.0907C3.28565 10.9429 4.39261 10.7265 4.04393 11.0907V11.0907ZM1.87756 9.57972C1.20491 9.41656 2.44534 9.15015 1.87756 9.57972V9.57972ZM31.2368 27.6404C30.8026 27.8645 31.2534 27.1421 31.2368 27.6404V27.6404ZM28.2535 25.638C27.8701 25.6879 28.3382 25.0652 28.2535 25.638V25.638ZM32.0571 27.8338C32.8513 27.8364 34.4636 27.5905 32.7357 27.5914C32.4641 27.6328 31.1556 27.6242 32.0571 27.8338ZM4.69053 10.7392C5.33352 10.6962 5.69596 10.0424 4.56548 10.0794C2.81406 9.9017 6.11077 10.6697 4.34104 10.4498C4.10351 10.6044 4.67637 10.7821 4.69053 10.7392ZM5.25657 11.0211C5.05724 11.2365 5.18923 10.6155 5.25657 11.0211V11.0211ZM5.92828 9.25997C5.54219 9.16893 6.20696 8.91973 5.92828 9.25997V9.25997ZM3.7897 5.74592C4.93768 5.36285 6.50661 4.93157 7.04833 5.93508C6.49699 5.28311 6.82563 4.64047 7.34625 5.59484C8.08262 6.5596 8.45108 5.15595 7.97241 4.832C8.51854 5.49855 9.13869 5.81396 8.33752 4.8743C9.20856 3.84425 6.59478 5.00908 6.00082 4.99699C5.7152 5.12311 3.04985 5.66526 3.78983 5.74592H3.7897ZM4.46235 4.47994C5.11683 3.99467 6.72584 4.76934 5.69329 3.99703C5.59202 3.90954 3.4326 4.58293 4.46235 4.47994ZM6.84821 4.57688C7.61344 4.5958 6.5181 3.56497 7.43001 4.03224C7.28066 3.55131 6.36781 3.46106 5.92147 3.26874C5.66897 3.70855 6.43487 4.58293 6.84821 4.57688ZM4.88076 2.4473C4.41612 2.62688 5.14555 2.09432 4.88076 2.4473V2.4473ZM5.856 2.67654C7.09015 2.51601 5.54126 2.15435 5.60672 2.66379L5.85587 2.67654H5.856ZM4.03511 1.27643C3.16581 0.160602 5.66964 1.46376 4.78631 0.295384C4.04299 -0.286044 3.32933 0.950904 4.03511 1.27643ZM15.1862 7.18228C15.5849 6.48801 13.5414 6.2459 14.9181 6.93636C15.0448 6.97774 15.0162 7.23023 15.1862 7.18228Z" fill="#BFD8D8"/>
</g>
<path d="M46.4161 11.3417C46.4421 10.3174 46.5115 9.58765 46.6236 9.15277C46.6305 9.1269 46.6339 9.10137 46.6339 9.07501C46.6339 8.97772 46.4125 8.94184 45.9706 8.9682C44.6439 9.0458 43.0704 9.08502 41.2488 9.08502C39.7049 9.08502 38.7247 9.05248 38.3087 8.98773C38.0255 8.942 37.8503 8.92899 37.7843 8.94868C37.7121 8.96136 37.6591 9.02978 37.6262 9.15277C37.5603 9.35402 37.6591 9.51272 37.9233 9.62954C38.3451 9.81744 38.6339 10.0269 38.7892 10.2572C38.9439 10.4876 39.0217 10.8167 39.0217 11.2442V19.5727C39.0217 20.6166 38.6986 21.1744 38.0519 21.246C37.7678 21.2719 37.6264 21.369 37.6264 21.5381C37.6264 21.8036 37.7678 21.917 38.0519 21.8786C39.0677 21.742 40.3581 21.7353 41.9218 21.8588C42.4634 21.9042 42.7534 21.8197 42.7933 21.6056C42.8324 21.3597 42.691 21.2198 42.3672 21.1874C41.734 21.1097 41.3218 21.0219 41.1299 20.9246C40.886 20.8083 40.7642 20.5875 40.7642 20.2631V15.8851C40.7642 15.8007 40.8235 15.7588 40.9423 15.7588C41.9911 15.7588 42.7489 15.7865 43.2141 15.8412C43.6788 15.8966 43.9978 16.3298 44.169 17.1403C44.2148 17.3544 44.3303 17.4519 44.5153 17.4324C44.74 17.4194 44.8488 17.3282 44.8418 17.16C44.7758 15.7461 44.8355 14.5981 45.0206 13.7157C45.0537 13.5603 44.9573 13.4597 44.7332 13.4143C44.4693 13.3556 44.3138 13.4562 44.2679 13.7157C44.1958 14.1895 44.1216 14.4825 44.0452 14.596C43.9695 14.7096 43.8224 14.7792 43.6044 14.8056C42.4896 14.8763 41.6385 14.9157 41.0508 14.9224C40.8598 14.9286 40.7642 14.8575 40.7642 14.7083V10.3012C40.7642 10.1519 40.7972 10.0544 40.8632 10.0093C40.9685 9.93776 41.1931 9.90188 41.5361 9.90188C43.0339 9.90188 43.9708 9.93108 44.3469 9.98949C44.6968 10.0349 44.9773 10.168 45.1882 10.3883C45.3672 10.5769 45.5546 10.9071 45.7526 11.3807C45.8254 11.5558 45.9541 11.6437 46.139 11.6437C46.3239 11.6437 46.4161 11.5429 46.4161 11.3417Z" fill="#BFD8D8"/>
<path d="M52.5974 21.8433C52.8942 21.8758 53.0427 21.7623 53.0427 21.5028V21.5027C53.0427 21.3143 52.8942 21.204 52.5974 21.1718C52.1162 21.1135 51.776 20.9952 51.578 20.817C51.38 20.6386 51.2809 20.3514 51.2809 19.9556L51.2418 11.2679C51.235 10.6448 51.2418 10.0125 51.261 9.37055C51.2878 8.69636 51.3011 8.37212 51.3011 8.39765C51.3011 8.06673 51.1785 7.90186 50.9345 7.90186C50.8294 7.90186 50.5784 8.01817 50.1825 8.2518C49.7006 8.55051 49.2353 8.77062 48.7863 8.9133C48.4894 9.01059 48.3408 9.15644 48.3408 9.35102C48.3408 9.48085 48.4434 9.58131 48.6481 9.65307C49.0373 9.78891 49.3095 9.98014 49.4648 10.2266C49.6195 10.4733 49.6971 10.8591 49.6971 11.3847V20.1895C49.6971 20.7212 49.5178 21.0408 49.1577 21.1474C48.798 21.2549 48.6186 21.386 48.6186 21.5412C48.6186 21.7169 48.6495 21.8237 48.7123 21.863C48.7755 21.9013 48.9417 21.9082 49.2125 21.8818C50.5586 21.7715 51.6873 21.7588 52.5974 21.8433Z" fill="#BFD8D8"/>
<path d="M68.5477 21.4494C69.0851 21.0443 69.3547 20.4974 69.3547 19.8099C69.3547 19.1876 69.1568 18.691 68.7608 18.3215C68.4569 18.0363 67.8828 17.7152 67.0381 17.3586C66.233 17.0147 65.7218 16.7614 65.5038 16.5992C65.2598 16.4113 65.1375 16.1586 65.1375 15.8405C65.1375 15.2698 65.5897 14.9845 66.4936 14.9845C67.2925 14.9845 67.9523 15.4027 68.4734 16.2397C68.5462 16.356 68.6912 16.3919 68.9092 16.3465C69.1133 16.2946 69.2062 16.2264 69.1863 16.1426C69.0213 15.4547 68.9119 14.9291 68.8596 14.5663C68.8398 14.4428 68.5924 14.3393 68.1173 14.2549C67.6747 14.1703 67.1865 14.1285 66.6517 14.1285C65.8007 14.1285 65.1209 14.3163 64.6129 14.6928C64.0652 15.0819 63.7913 15.6263 63.7913 16.327C63.7913 16.898 63.966 17.3519 64.3159 17.689C64.6391 18.0073 65.2825 18.3769 66.2463 18.7983C66.913 19.0836 67.3611 19.3334 67.5922 19.5475C67.8037 19.7354 67.909 19.9692 67.909 20.2476C67.909 20.8834 67.4436 21.2016 66.5137 21.2016C65.4116 21.2016 64.6129 20.7766 64.1181 19.9267C64.0061 19.739 63.8706 19.6543 63.7124 19.674C63.5538 19.6867 63.4746 19.8653 63.4746 20.209C63.4746 21.007 63.5008 21.4508 63.5538 21.5421C63.6395 21.6393 63.9495 21.7462 64.4844 21.863C65.1044 21.9928 65.7252 22.0575 66.3452 22.0575C67.276 22.0575 68.01 21.855 68.5477 21.4494Z" fill="#BFD8D8"/>
<path d="M80.5346 21.8725C80.8446 21.8596 80.9999 21.7395 80.9999 21.5125C80.9999 21.3313 80.9634 21.2193 80.8904 21.1771C80.8183 21.1347 80.6301 21.1137 80.3262 21.1137C79.9172 21.1137 79.4786 20.9159 79.0099 20.5204C78.2777 19.891 77.4989 18.9606 76.6741 17.7282C76.4493 17.3845 76.3372 17.1669 76.3372 17.0763C76.3372 17.018 76.3641 16.9695 76.4164 16.9304C77.1291 16.2297 77.7993 15.7399 78.4263 15.4616C78.8744 15.2535 79.3528 15.14 79.8615 15.1211C80.1846 15.1014 80.3463 14.9813 80.3463 14.761C80.3463 14.5272 80.2437 14.4076 80.0396 14.4009C79.4126 14.4009 78.7824 14.3974 78.1485 14.3914C77.2385 14.3847 76.5456 14.349 76.0698 14.2839C75.8589 14.2515 75.7433 14.3488 75.7233 14.5758C75.7104 14.8029 75.8197 14.9291 76.0506 14.9556C76.5848 15.0263 76.852 15.1502 76.852 15.325C76.852 15.4223 76.7731 15.5522 76.6143 15.7142C75.8162 16.3952 75.1431 16.9464 74.5954 17.3681C74.3906 17.537 74.2387 17.6208 74.1397 17.6208C74.0475 17.6208 74.0015 17.537 74.0015 17.3681L73.9816 11.2781C73.9808 10.6424 73.984 10.0067 73.9911 9.37104C73.9981 8.68384 74.0015 8.36227 74.0015 8.40816C74.0015 8.07024 73.8662 7.90203 73.5952 7.90203C73.5099 7.90203 73.2853 8.01901 72.9221 8.25213C72.4812 8.53401 72.0056 8.75966 71.5068 8.92365C71.1969 9.02694 71.0416 9.17279 71.0416 9.36137C71.0416 9.4912 71.1507 9.59182 71.3681 9.66275C71.8299 9.81193 72.1338 10.0195 72.2788 10.2857C72.3849 10.4931 72.4376 10.8628 72.4376 11.3944V19.8976C72.4376 20.6434 72.2562 21.0616 71.8934 21.1531C71.4905 21.2562 71.2889 21.4091 71.2889 21.6096C71.2889 21.6941 71.2959 21.7592 71.309 21.8042C71.3419 21.9339 71.5565 21.9826 71.9525 21.9502C73.523 21.8273 74.638 21.7949 75.2978 21.853C75.509 21.8725 75.6398 21.8643 75.689 21.8286C75.7386 21.7935 75.7634 21.7009 75.7634 21.5516C75.7634 21.3637 75.608 21.2502 75.2978 21.2111C74.7969 21.1591 74.4764 21.0882 74.3377 20.9969C74.1397 20.867 74.0346 20.5949 74.0213 20.1802C74.0076 19.7645 74.0015 19.4469 74.0015 19.226C74.0015 18.9152 74.1562 18.6749 74.4669 18.5067C74.744 18.312 74.9384 18.2147 75.0504 18.2147C75.1431 18.2147 75.2188 18.2666 75.2779 18.3701C76.0039 19.5767 76.8885 20.7314 77.9314 21.8339C78.0895 21.9961 78.3535 22.0414 78.7233 21.9698C79.4683 21.9115 80.0726 21.8792 80.5346 21.8725Z" fill="#BFD8D8"/>
<path fill-rule="evenodd" clip-rule="evenodd" d="M61.9955 20.9291C61.9955 21.0656 61.7432 21.2712 61.2386 21.5466C60.7334 21.8224 60.3292 21.9603 60.0259 21.9603C59.7682 21.9603 59.5408 21.8373 59.3429 21.5906C59.1449 21.3441 59.0058 21.2212 58.9269 21.2212C58.8676 21.2212 58.5542 21.3542 57.9863 21.6197C57.4193 21.8858 56.8482 22.019 56.2741 22.019C55.7332 22.019 55.2809 21.863 54.918 21.5522C54.5221 21.2081 54.3241 20.7412 54.3241 20.1508C54.3241 19.0287 55.6308 18.2247 58.2442 17.7383C58.6924 17.6538 58.9206 17.4754 58.9267 17.2031L58.9469 16.5803C58.9867 15.5168 58.5082 14.9851 57.5115 14.9851C57.2277 14.9851 56.9589 15.2344 56.7044 15.7337C56.4509 16.2337 56.0858 16.5025 55.6108 16.5418C55.0698 16.5932 54.799 16.3695 54.799 15.8702C54.799 15.5587 55.2018 15.1961 56.0067 14.7805C56.8516 14.3461 57.6635 14.1285 58.4422 14.1285C59.7814 14.1285 60.4446 14.7548 60.4315 16.0066L60.3916 20.0145C60.3855 20.4362 60.567 20.6468 60.9362 20.6468C61.009 20.6468 61.1477 20.6307 61.352 20.5982C61.5569 20.5658 61.6758 20.5495 61.7089 20.5495C61.8999 20.5495 61.9955 20.6765 61.9955 20.9291ZM58.8327 18.3903C58.9152 18.4415 58.9537 18.5489 58.9469 18.7113L58.9269 20.3063C58.9269 20.5078 58.7226 20.6793 58.3129 20.8225C57.9639 20.9455 57.6236 21.0069 57.2935 21.0069C56.4687 21.0069 56.0563 20.6341 56.0563 19.8881C56.0563 19.1489 56.8516 18.6396 58.4422 18.3605C58.6204 18.328 58.7501 18.3384 58.8327 18.3903Z" fill="#BFD8D8"/>
<defs>
<clipPath id="clip0">
<rect width="34.3365" height="30" fill="white"/>
</clipPath>
</defs>
</svg>
