<svg width="93" height="30" viewBox="0 0 93 30" fill="none" xmlns="http://www.w3.org/2000/svg">
<path d="M11.8344 22.8032C5.57335 22.8032 0.228516 17.7274 0.228516 11.4396C0.228516 5.22744 5.57335 0.0759277 11.8344 0.0759277C15.2704 0.0759277 17.7901 1.43955 19.699 3.18197L17.4847 5.37896C16.1103 4.16684 14.3541 3.18197 11.8344 3.18197C7.25316 3.18197 3.66448 6.81835 3.66448 11.4396C3.66448 16.0608 7.25316 19.6971 11.8344 19.6971C14.8123 19.6971 16.4921 18.485 17.6374 17.4244C18.4773 16.5911 19.0881 15.3032 19.3172 13.485H11.8344V10.4547H22.3714C22.4477 10.985 22.5241 11.6668 22.5241 12.4244C22.5241 14.7729 21.8369 17.6517 19.7753 19.6971C17.7901 21.6668 15.194 22.8032 11.8344 22.8032Z" fill="#BFD8D8"/>
<path d="M38.3294 15.4547C38.3294 19.6214 35.0462 22.8032 30.923 22.8032C26.7999 22.8032 23.5166 19.6971 23.5166 15.4547C23.5166 11.2123 26.7999 8.1062 30.923 8.1062C35.0462 8.1062 38.3294 11.2123 38.3294 15.4547ZM35.1225 15.4547C35.1225 12.8032 33.2136 11.0608 30.9994 11.0608C28.7851 11.0608 26.8762 12.8032 26.8762 15.4547C26.8762 18.0305 28.7851 19.8486 30.9994 19.8486C33.2136 19.8486 35.1225 18.0305 35.1225 15.4547Z" fill="#BFD8D8"/>
<path d="M54.2113 15.4547C54.2113 19.6214 50.928 22.8032 46.8049 22.8032C42.6817 22.8032 39.3984 19.6971 39.3984 15.4547C39.3984 11.2123 42.6817 8.1062 46.8049 8.1062C50.928 8.1062 54.2113 11.2123 54.2113 15.4547ZM51.0044 15.4547C51.0044 12.8032 49.0955 11.0608 46.8812 11.0608C44.6669 11.0608 42.7581 12.8032 42.7581 15.4547C42.7581 18.0305 44.6669 19.8486 46.8812 19.8486C49.0955 19.8486 51.0044 18.0305 51.0044 15.4547Z" fill="#BFD8D8"/>
<path d="M69.559 8.56056V21.6666C69.559 27.0454 66.3521 29.3181 62.5344 29.3181C58.9457 29.3181 56.8078 26.9697 56.0443 25L58.8694 23.7878C59.3275 25 60.6255 26.3636 62.5344 26.3636C64.9778 26.3636 66.5048 24.8485 66.5048 22.0454V20.9848H66.4285C65.7413 21.8181 64.2906 22.6515 62.5344 22.6515C58.8694 22.6515 55.5098 19.4697 55.5098 15.3787C55.5098 11.2121 58.8694 8.03027 62.5344 8.03027C64.2906 8.03027 65.665 8.78783 66.4285 9.62116H66.5048V8.40906C66.5048 8.56058 69.559 8.56056 69.559 8.56056ZM66.7339 15.5303C66.7339 12.9545 64.9778 11.0606 62.7635 11.0606C60.5492 11.0606 58.6403 12.9545 58.6403 15.5303C58.6403 18.0303 60.4728 19.9242 62.7635 19.9242C64.9778 19.8484 66.7339 18.0303 66.7339 15.5303Z" fill="#BFD8D8"/>
<path d="M74.9795 0.833496V22.2729H71.6963V0.833496H74.9795Z" fill="#BFD8D8"/>
<path d="M87.3494 17.8789L89.8691 19.5456C89.0292 20.7577 87.1203 22.8032 83.7607 22.8032C79.5612 22.8032 76.4307 19.5456 76.4307 15.4547C76.4307 11.0608 79.5612 8.1062 83.3789 8.1062C87.1967 8.1062 89.1056 11.1365 89.64 12.7274L89.9455 13.5608L80.0957 17.5759C80.8593 19.0153 82.0809 19.7729 83.6844 19.7729C85.2878 19.8486 86.4331 19.0911 87.3494 17.8789ZM79.5612 15.2274L86.1277 12.5002C85.7459 11.5911 84.677 10.9092 83.3789 10.9092C81.7755 10.985 79.4849 12.4244 79.5612 15.2274Z" fill="#BFD8D8"/>
</svg>
