<svg width="39" height="30" viewBox="0 0 39 30" fill="none" xmlns="http://www.w3.org/2000/svg">
<path d="M33.5597 17.2423C32.1999 17.2496 31.0181 17.5857 30.0285 18.0825C29.6654 17.3446 29.3023 16.687 29.2383 16.2048C29.1671 15.6422 29.0816 15.2988 29.1671 14.6266C29.2525 13.9544 29.6369 12.9973 29.6298 12.9242C29.6227 12.8512 29.5444 12.5078 28.7613 12.5005C27.9781 12.4932 27.3018 12.6539 27.2235 12.8658C27.1452 13.0777 26.9957 13.5599 26.896 14.0567C26.7607 14.7874 25.3297 17.3957 24.511 18.762C24.2476 18.2287 24.0198 17.7611 23.9699 17.3884C23.8987 16.8258 23.8133 16.4824 23.8987 15.8102C23.9842 15.1381 24.3686 14.1809 24.3615 14.1079C24.3544 14.0348 24.276 13.6914 23.4929 13.6841C22.7098 13.6768 22.0334 13.8375 21.9551 14.0494C21.8768 14.2613 21.7914 14.7581 21.6276 15.2404C21.4639 15.7226 19.563 20.0772 19.0647 21.2024C18.8084 21.7796 18.5877 22.2399 18.431 22.554C18.431 22.554 18.4239 22.576 18.4026 22.6125C18.2673 22.8828 18.189 23.029 18.189 23.029C18.189 23.029 18.189 23.029 18.189 23.0363C18.0822 23.2335 17.9683 23.4162 17.9113 23.4162C17.8686 23.4162 17.7903 22.8901 17.9256 22.1741C18.2103 20.6617 18.8867 18.309 18.8796 18.2287C18.8796 18.1848 19.0077 17.7757 18.4382 17.5638C17.8828 17.3519 17.6835 17.7026 17.6337 17.7026C17.5838 17.7026 17.5482 17.8268 17.5482 17.8268C17.5482 17.8268 18.1676 15.1819 16.3664 15.1819C15.2415 15.1819 13.6895 16.4459 12.9206 17.5857C12.4365 17.856 11.4042 18.4332 10.3007 19.0543C9.88065 19.2954 9.44636 19.5365 9.04056 19.763C9.01208 19.7338 8.9836 19.6972 8.95513 19.668C6.77659 17.2788 2.74702 15.5911 2.91789 12.3836C2.98196 11.2145 3.37353 8.14586 10.6567 4.4196C16.6512 1.38745 21.4212 2.22769 22.247 4.09081C23.4288 6.75034 19.6912 11.6895 13.4973 12.4055C11.1337 12.6758 9.89489 11.7406 9.58163 11.3899C9.25414 11.0246 9.2043 11.0027 9.08328 11.0757C8.88393 11.1853 9.01208 11.5141 9.08328 11.7041C9.26838 12.2009 10.0302 13.0777 11.3188 13.5087C12.4579 13.8887 15.2273 14.1006 18.5805 12.7708C22.3325 11.2803 25.2656 7.13758 24.4042 3.66704C23.5427 0.145369 17.8472 -1.01635 12.4579 0.949071C9.25414 2.11809 5.77988 3.9593 3.28097 6.35579C0.31219 9.20528 -0.15769 11.6821 0.0345339 12.7197C0.725114 16.4021 5.67309 18.7986 7.65228 20.574C7.55261 20.6325 7.46005 20.6836 7.38174 20.7274C6.39215 21.2316 2.61887 23.2555 1.67911 25.3962C0.611204 27.8219 1.84998 29.5609 2.66871 29.7947C5.21033 30.518 7.82314 29.2175 9.22566 27.0694C10.6282 24.9213 10.4573 22.1303 9.80945 20.8517C9.80233 20.837 9.79521 20.8224 9.78097 20.8078C10.0373 20.6544 10.3007 20.4936 10.557 20.3402C11.0625 20.0333 11.5608 19.7484 11.988 19.5146C11.7459 20.1941 11.5679 21.0051 11.4825 22.1741C11.3757 23.5477 11.9239 25.3305 12.643 26.0319C12.9633 26.3387 13.3407 26.3461 13.5827 26.3461C14.4228 26.3461 14.8001 25.63 15.2202 24.7825C15.7328 23.745 16.1955 22.5394 16.1955 22.5394C16.1955 22.5394 15.6189 25.7981 17.1851 25.7981C17.7547 25.7981 18.3314 25.0382 18.5877 24.651C18.5877 24.6583 18.5877 24.6583 18.5877 24.6583C18.5877 24.6583 18.6019 24.6364 18.6304 24.5852C18.6873 24.4902 18.7229 24.4318 18.7229 24.4318C18.7229 24.4318 18.7229 24.4245 18.7229 24.4172C18.9507 24.008 19.4633 23.0801 20.2251 21.5385C21.2076 19.5511 22.1545 17.0669 22.1545 17.0669C22.1545 17.0669 22.2399 17.6734 22.5318 18.6817C22.7027 19.2735 23.0586 19.9237 23.3434 20.5521C23.1156 20.8809 22.9732 21.0635 22.9732 21.0635C22.9732 21.0635 22.9732 21.0635 22.9803 21.0708C22.7952 21.3193 22.5959 21.5896 22.3752 21.8526C21.5992 22.8025 20.6736 23.8911 20.5455 24.2053C20.396 24.5779 20.4316 24.8482 20.7164 25.0674C20.9228 25.2282 21.293 25.2501 21.6704 25.2282C22.3681 25.177 22.8593 25.0017 23.1013 24.8921C23.4787 24.7533 23.9201 24.5414 24.333 24.2272C25.0948 23.65 25.5575 22.8244 25.5148 21.7357C25.4935 21.1366 25.3012 20.5375 25.0663 19.9749C25.1375 19.8726 25.2016 19.7703 25.2728 19.668C26.4759 17.8633 27.4086 15.8833 27.4086 15.8833C27.4086 15.8833 27.494 16.4897 27.7859 17.498C27.9283 18.0095 28.2202 18.5648 28.4765 19.1054C27.3445 20.0479 26.6468 21.1439 26.3976 21.8599C25.9491 23.1897 26.298 23.7888 26.9601 23.9276C27.2591 23.9934 27.6862 23.8473 27.9995 23.7084C28.3982 23.5769 28.8681 23.3504 29.3166 23.0143C30.0783 22.4371 30.8116 21.6334 30.7689 20.5448C30.7476 20.048 30.6194 19.5584 30.4414 19.0835C31.4026 18.6744 32.6413 18.4479 34.2218 18.6378C37.6107 19.047 38.2799 21.217 38.1517 22.1303C38.0236 23.0436 37.3116 23.5404 37.0767 23.6938C36.8418 23.8473 36.7635 23.8984 36.7848 24.008C36.8133 24.1687 36.9272 24.1614 37.1265 24.1322C37.4042 24.0811 38.9064 23.3943 38.9705 21.7138C39.0773 19.5657 37.0838 17.2204 33.5597 17.2423ZM7.41734 26.2876C6.29248 27.5443 4.72621 28.0192 4.04987 27.6174C3.32369 27.1863 3.60847 25.3305 4.98963 24.0007C5.82972 23.1897 6.91186 22.4371 7.63092 21.9768C7.79467 21.8745 8.03673 21.7284 8.32862 21.5458C8.37846 21.5165 8.40693 21.5019 8.40693 21.5019C8.46389 21.4654 8.52084 21.4289 8.5778 21.3923C9.08328 23.292 8.59916 24.9651 7.41734 26.2876ZM15.6046 20.574C15.2131 21.5531 14.3943 24.0592 13.896 23.9203C13.4688 23.8034 13.2054 21.9038 13.8105 20.026C14.1167 19.0835 14.7645 17.9583 15.1419 17.5199C15.7541 16.8185 16.4305 16.5847 16.5942 16.8697C16.8007 17.2423 15.8467 19.9603 15.6046 20.574ZM22.3609 23.8911C22.1972 23.9788 22.0406 24.0372 21.9694 23.9934C21.9195 23.9642 22.0406 23.8473 22.0406 23.8473C22.0406 23.8473 22.8878 22.9121 23.2224 22.4883C23.4146 22.2399 23.6424 21.9476 23.8845 21.6188C23.8845 21.648 23.8845 21.6846 23.8845 21.7138C23.8845 22.8317 22.8308 23.5842 22.3609 23.8911ZM27.5723 22.6709C27.4513 22.5833 27.4727 22.291 27.8785 21.3777C28.0351 21.0197 28.4053 20.4206 29.0389 19.8434C29.1101 20.0772 29.1599 20.3037 29.1528 20.5156C29.1457 21.9257 28.1632 22.4517 27.5723 22.6709Z" fill="#CD6799"/>
</svg>
