<svg width="114" height="30" viewBox="0 0 114 30" fill="none" xmlns="http://www.w3.org/2000/svg">
<g clip-path="url(#clip0)">
<path d="M14.2303 29.6C22.0894 29.6 28.4605 22.9952 28.4605 14.8477C28.4605 6.70028 22.0894 0.095459 14.2303 0.095459C6.37111 0.095459 0 6.70028 0 14.8477C0 22.9952 6.37111 29.6 14.2303 29.6Z" fill="white"/>
<path d="M20.4513 5.55401C19.0057 5.60628 17.7438 6.43219 16.8046 7.57492C15.7646 8.82765 15.0727 10.3136 14.5742 11.8304C13.6823 11.0726 12.9944 10.0917 11.5637 9.66401C10.4579 9.33492 9.2964 9.47083 8.2283 10.2958C7.72232 10.6876 7.37374 11.2799 7.208 11.8367C6.77875 13.2836 7.65918 14.5713 8.05906 15.0336L8.93335 16.0049C9.11356 16.1954 9.54763 16.6922 9.33542 17.4045C9.1061 18.179 8.2055 18.6804 7.28166 18.3849C6.86907 18.2545 6.27627 17.9358 6.40913 17.4872C6.46393 17.3036 6.59065 17.1663 6.65861 17.0076C6.72087 16.8713 6.75069 16.769 6.76954 16.709C6.93835 16.1376 6.70772 15.3945 6.11755 15.2058C5.56684 15.0308 5.00342 15.1695 4.78506 15.9045C4.53733 16.7395 4.92274 18.2549 6.98746 18.9149C9.40645 19.6854 11.4527 18.3199 11.743 16.539C11.9258 15.4236 11.44 14.5949 10.55 13.529L9.82474 12.6976C9.3854 12.2426 9.23457 11.4672 9.68926 10.8713C10.0729 10.3686 10.6192 10.154 11.5141 10.4063C12.8203 10.774 13.4026 11.7136 14.3742 12.4713C13.973 13.8354 13.7108 15.2045 13.4736 16.4322L13.3289 17.3476C12.6344 21.124 12.1043 23.1976 10.7267 24.3881C10.4491 24.5926 10.0523 24.899 9.45424 24.9204C9.14074 24.9304 9.03946 24.7067 9.03507 24.6095C9.02762 24.3813 9.21309 24.2767 9.3363 24.174C9.52045 24.0699 9.79887 23.8972 9.78002 23.344C9.75985 22.6904 9.23764 22.1236 8.48261 22.1495C7.917 22.1695 7.05498 22.7213 7.08743 23.7313C7.12119 24.7745 8.05906 25.5563 9.4731 25.5067C10.229 25.4799 11.9171 25.1608 13.5806 23.1108C15.5168 20.7608 16.0583 18.0667 16.4657 16.0949L16.9204 13.4917C17.1729 13.5231 17.443 13.544 17.7368 13.5513C20.1483 13.604 21.3545 12.309 21.3725 11.3672C21.3843 10.7972 21.0116 10.2363 20.4899 10.249C20.1163 10.2599 19.6472 10.5176 19.5345 11.0531C19.4244 11.5786 20.3018 12.0526 19.616 12.5131C19.1289 12.8399 18.2555 13.0704 17.0256 12.8831L17.2492 11.6017C17.7056 9.17174 18.2686 6.18265 20.4044 6.10992C20.56 6.10174 21.1296 6.11719 21.1427 6.50765C21.1467 6.6381 21.1156 6.67128 20.9682 6.96992C20.8183 7.20265 20.7617 7.40083 20.7687 7.62856C20.7893 8.24901 21.2445 8.65674 21.9026 8.63219C22.7839 8.60265 23.0373 7.7131 23.0229 7.25628C22.9874 6.1831 21.896 5.50492 20.4513 5.55401Z" fill="#1A171B"/>
<path d="M86.2815 10.6974C89.5612 10.6974 91.7619 13.1551 91.7619 16.5551C91.7619 19.7587 89.5187 22.4124 86.2815 22.4124C83.0216 22.4124 80.7788 19.7587 80.7788 16.5551C80.7788 13.1551 82.979 10.6974 86.2815 10.6974ZM86.2815 20.7469C88.608 20.7469 89.645 18.5528 89.645 16.5551C89.645 14.4278 88.3967 12.3655 86.2815 12.3655C84.1432 12.3655 82.8949 14.4278 82.8949 16.5551C82.8953 18.5524 83.9318 20.7469 86.2815 20.7469ZM80.5061 11.7387V10.9601H77.6482V9.896C77.6482 8.38237 77.86 7.24055 79.5735 7.24055C79.6051 7.24055 79.6388 7.24282 79.6717 7.24418C79.6752 7.24418 79.6748 7.23873 79.6787 7.23873C80.1545 7.27509 80.55 6.87328 80.5767 6.381L80.6118 5.70555C80.2106 5.63918 79.7857 5.57373 79.2793 5.57373C76.3377 5.57373 75.6598 7.351 75.6598 10.0719V10.9605H73.1189V11.8301C73.1842 12.2801 73.5556 12.6265 74.0094 12.6265C74.0121 12.6265 74.0134 12.6287 74.0164 12.6287H75.6598V22.1501H76.756L76.7586 22.1496C77.2146 22.1496 77.5882 21.7955 77.6487 21.341V12.6287H79.6384C79.8645 12.6206 80.0793 12.5245 80.2401 12.3596C80.4009 12.1947 80.4959 11.973 80.5061 11.7387ZM54.0077 10.9601C54.0042 10.9601 54.002 10.9628 53.9972 10.9628C53.578 10.9628 53.172 11.2615 52.9948 11.6651L50.2571 20.2196H50.215L47.5378 11.6696C47.3628 11.2637 46.955 10.9628 46.5332 10.9628C46.5284 10.9628 46.5267 10.9601 46.5227 10.9601H45.1354L48.797 21.4042C48.9246 21.7774 49.1789 22.3483 49.1789 22.5887C49.1789 22.8083 48.5857 25.3524 46.8073 25.3524C46.7634 25.3524 46.7192 25.3483 46.6757 25.3446C46.2224 25.3187 45.8799 25.6469 45.8036 26.1533L45.7493 26.8669C46.1088 26.9328 46.4705 27.0205 47.105 27.0205C49.7287 27.0205 50.5114 24.541 51.2528 22.391L55.231 10.9596H54.0077V10.9601ZM41.3612 13.2328C39.7182 12.3615 37.9205 11.7701 37.8894 10.0165C37.8947 8.15418 39.545 7.66555 40.817 7.66691C40.8223 7.666 40.8275 7.666 40.8306 7.666C41.3831 7.666 41.825 7.72282 42.2561 7.82055C42.2618 7.82055 42.2609 7.81328 42.2679 7.81328C42.7235 7.84782 43.1058 7.47828 43.1597 7.01237L43.1961 6.336C42.3622 6.121 41.4909 6.01237 40.7324 6.01237C37.9661 6.03009 35.9128 7.47282 35.9062 10.2251C35.9102 12.6324 37.4751 13.5655 39.1579 14.4101C40.8082 15.2328 42.6165 15.9124 42.6323 17.8983C42.6222 19.971 40.6929 20.7351 39.3635 20.7378C38.5861 20.7351 37.7421 20.5337 37.0309 20.3015C36.585 20.2251 36.2193 20.6328 36.1619 21.1728L36.1014 21.776C37.0791 22.1033 38.0819 22.3887 39.0895 22.3887H39.1013C42.1991 22.3655 44.6071 21.0846 44.6163 17.7592C44.6115 15.1933 43.0361 14.1155 41.3612 13.2328ZM71.4497 22.1496L71.4523 22.1492C71.882 22.1492 72.2398 21.8369 72.331 21.4201V14.976C72.331 12.5405 71.337 10.6974 68.5839 10.6974C67.611 10.6974 65.9821 11.2687 65.2415 12.8696C64.6689 11.3555 63.4219 10.6974 62.1723 10.6974C60.5855 10.6974 59.5056 11.2896 58.7453 12.5846H58.7019V11.8883C58.6993 11.6421 58.6033 11.407 58.4347 11.2337C58.266 11.0605 58.0383 10.9632 57.8008 10.9628C57.7973 10.9628 57.7947 10.9601 57.7912 10.9601H56.8402V22.1496H57.917L57.9196 22.1492C58.159 22.1491 58.3886 22.0504 58.5579 21.8749C58.7272 21.6994 58.8223 21.4615 58.8224 21.2133C58.8224 21.1996 58.8273 21.1942 58.8295 21.1846V16.5119C58.8295 14.4278 59.6336 12.3655 61.665 12.3655C63.2737 12.3655 63.5925 14.0978 63.5925 15.4805V22.1501H64.6842L64.6873 22.1496C64.9118 22.149 65.128 22.0613 65.2933 21.9038C65.4586 21.7462 65.5611 21.5302 65.5804 21.2983V16.5119C65.5804 14.4278 66.385 12.3655 68.4164 12.3655C70.0243 12.3655 70.3426 14.0978 70.3426 15.4805V22.1501H71.4497V22.1496ZM102.192 22.1496L102.195 22.1492C102.427 22.1488 102.65 22.0558 102.817 21.8896C102.984 21.7233 103.083 21.4965 103.093 21.2565V15.5019C103.093 12.4969 101.844 10.6969 99.05 10.6969C97.5478 10.6969 96.1101 11.4655 95.5164 12.7383H95.4739V11.9024C95.4739 11.9019 95.4721 11.9019 95.4721 11.8996C95.4723 11.7767 95.4492 11.6548 95.4039 11.5412C95.3587 11.4275 95.2922 11.3242 95.2084 11.2372C95.1246 11.1501 95.0251 11.0811 94.9155 11.034C94.8059 10.987 94.6884 10.9628 94.5698 10.9628C94.5649 10.9628 94.5632 10.9601 94.5601 10.9601H93.5468V22.1496H94.6399L94.643 22.1492C94.8691 22.1485 95.0867 22.0594 95.2524 21.8998C95.418 21.7401 95.5195 21.5216 95.5366 21.2878V16.9719C95.5366 14.2519 96.5534 12.3651 98.8171 12.3651C100.553 12.4742 101.102 13.746 101.102 16.3574V22.1492H102.192V22.1496ZM112.902 10.9601C112.897 10.9601 112.896 10.9628 112.891 10.9628C112.473 10.9628 112.065 11.2615 111.89 11.6651L109.153 20.2196H109.108L106.432 11.6696C106.256 11.2637 105.848 10.9628 105.427 10.9628C105.423 10.9628 105.42 10.9601 105.417 10.9601H104.03L107.692 21.4042C107.819 21.7774 108.074 22.3483 108.074 22.5887C108.074 22.8083 107.48 25.3524 105.702 25.3524C105.658 25.3524 105.614 25.3483 105.57 25.3446C105.117 25.3187 104.775 25.6469 104.698 26.1533L104.644 26.8669C105.004 26.9328 105.366 27.0205 106 27.0205C108.623 27.0205 109.407 24.541 110.148 22.391L114.127 10.9596H112.902V10.9601Z" fill="white"/>
</g>
<defs>
<clipPath id="clip0">
<rect width="114" height="30" fill="white"/>
</clipPath>
</defs>
</svg>
