<svg width="126" height="30" viewBox="0 0 126 30" fill="none" xmlns="http://www.w3.org/2000/svg">
<g clip-path="url(#clip0)">
<path d="M15.1482 29.7764C23.2624 29.7764 29.8403 23.1107 29.8403 14.8882C29.8403 6.66568 23.2624 0 15.1482 0C7.03395 0 0.456055 6.66568 0.456055 14.8882C0.456055 23.1107 7.03395 29.7764 15.1482 29.7764Z" fill="#5E464D"/>
<path d="M10.5279 28.09C11.1289 28.2955 13.1473 28.9529 13.2332 28.3101C13.2797 27.9573 12.2145 27.5959 10.7723 26.8306C8.72123 25.7448 6.84481 24.3562 5.20604 22.7113C2.81404 20.3621 1.43861 17.166 1.37584 13.8111C1.2536 9.30701 3.01153 5.66586 5.9031 3.31616C4.15709 4.666 2.73375 6.38904 1.73682 8.35969C0.739888 10.3303 0.194477 12.499 0.140336 14.7075C0.0544767 17.9653 0.964004 20.71 2.67246 23.2084C3.20297 23.8947 3.82311 24.5066 4.51625 25.0275C6.1534 26.268 8.54727 27.4151 10.5279 28.0885" fill="white"/>
<path d="M30.0429 11.4758C29.1319 7.18454 26.3 4.18037 22.512 2.05807C25.4035 4.12353 29.4855 8.51536 27.0814 12.3897C25.0441 15.493 20.089 14.8852 17.3822 13.4101C14.1633 11.6609 10.1308 7.72532 14.108 3.87719C16.6823 1.38756 24.8767 4.17892 23.4346 7.90024C22.5935 10.0648 19.3192 9.5838 17.8465 8.52556C16.7609 7.74427 15.847 6.4018 16.3301 5.01559C16.4858 4.57102 16.464 3.88156 15.8368 4.38881C15.3696 4.7678 15.1339 5.39166 15.0524 5.9718C14.367 10.8242 22.998 14.5864 25.5578 9.89136C26.8879 7.4542 24.7341 3.91509 22.023 2.4662C19.9857 1.37298 17.8639 0.604815 15.2663 0.791391C11.1102 1.08292 7.62194 3.69207 7.18536 7.94542C6.74879 12.1725 9.57051 15.9769 12.8928 18.2523C16.3854 20.6428 21.08 22.2185 25.3759 20.7929C29.2265 19.5146 30.817 15.0878 30.0429 11.4743" fill="white"/>
<path d="M24.6232 8.18882C25.0364 5.40767 22.5261 3.49817 20.2079 2.63089C17.475 1.61055 13.8645 2.05658 11.8738 4.32319C10.4185 5.9878 10.5131 8.40455 11.264 10.3607C12.3991 13.3153 14.9618 15.4507 17.945 16.3734C20.0639 17.0293 22.628 17.315 24.776 16.6226C27.9091 15.6125 28.9292 12.3401 28.2816 9.3418C28.143 8.69362 27.9301 8.06364 27.6471 7.46438C27.2513 6.63207 26.0464 4.94706 27.7097 6.99939C27.8848 7.22812 28.0462 7.46711 28.1929 7.71509C28.5375 8.28214 28.8107 8.88973 29.0063 9.524C29.9173 12.3226 29.2028 15.5877 26.678 17.2771C24.741 18.57 22.2788 18.7245 20.0319 18.4009C17.0195 17.9637 14.1803 16.506 12.207 14.1607C10.4054 12.0224 9.17575 8.95116 9.91647 6.14377C10.4593 4.08997 12.1241 2.55655 14.1178 1.91665C16.6397 1.09892 19.4148 1.47936 21.685 2.80726C22.823 3.47048 23.8679 4.38878 24.4427 5.59278C24.706 6.13517 24.8475 6.72871 24.8574 7.33173C24.8632 7.57597 24.8442 7.82016 24.8007 8.06055C24.7847 8.148 24.5999 8.39434 24.6261 8.19173" fill="#3FE0C5"/>
</g>
<path d="M38 10H44.9468V12.1976H42.6588V21.7177H40.2316V12.1976H38V10Z" fill="white"/>
<path d="M53.356 14.5807H54.7785C55.5411 14.5807 56.065 14.488 56.3502 14.3026C56.4996 14.194 56.6174 14.0522 56.6927 13.8902C56.7681 13.7282 56.7985 13.5511 56.7813 13.3753C56.7893 13.1334 56.715 12.8954 56.5691 12.6953C56.4297 12.506 56.2303 12.3622 55.9987 12.2842C55.5659 12.1807 55.1187 12.139 54.6724 12.1606H53.346L53.356 14.5807ZM50.9619 10H54.1717C55.5599 10 56.5492 10.1154 57.1394 10.3462C57.7313 10.581 58.2281 10.9847 58.5586 11.4991C58.9305 12.0713 59.1181 12.7312 59.0991 13.4C59.1261 14.0868 58.917 14.7636 58.5022 15.3318C58.0523 15.888 57.4275 16.2996 56.715 16.5095L59.6992 21.7177H57.0764L54.2479 16.7567H53.356V21.7177H50.9619V10Z" fill="white"/>
<path d="M65.7768 10H68.1741V17.5789C68.1467 18.0471 68.2096 18.5162 68.3598 18.9637C68.4801 19.2355 68.6934 19.4627 68.9666 19.6097C69.2752 19.7799 69.6295 19.8646 69.9879 19.8539C70.3707 19.8636 70.7483 19.7703 71.0755 19.5849C71.3611 19.4251 71.5833 19.1833 71.7088 18.8957C71.8571 18.3749 71.9164 17.8356 71.8846 17.2977V10H74.2853V16.9855C74.3219 17.8085 74.2506 18.6327 74.0731 19.4397C73.9098 19.9316 73.6312 20.3835 73.2574 20.7626C72.8761 21.1663 72.4009 21.4835 71.868 21.6899C71.2864 21.9065 70.6639 22.0117 70.0376 21.9989C69.2005 22.0165 68.3751 21.8129 67.6569 21.4117C67.0285 21.0683 66.524 20.5582 66.2078 19.9466C65.9182 19.3593 65.7734 18.3671 65.7734 16.97L65.7768 10Z" fill="white"/>
<path d="M81.5308 10H87.7712V12.1729H83.9082V14.3026H87.7712V16.4446H83.9082V21.7177H81.5308V10Z" fill="white"/>
<path d="M94.3931 10H100.634V12.1729H96.7705V14.3026H100.634V16.4446H96.7705V21.7177H94.3931V10Z" fill="white"/>
<path d="M107.235 10H109.629V19.5911H113.114V21.7177H107.235V10Z" fill="white"/>
<path d="M119.14 10H126V12.1822H121.514V14.3026H126V16.4446H121.514V19.5293H126V21.7177H119.14V10Z" fill="white"/>
<defs>
<clipPath id="clip0">
<rect width="30.3448" height="30" fill="white"/>
</clipPath>
</defs>
</svg>
