<svg width="186" height="19" viewBox="0 0 186 19" fill="none" xmlns="http://www.w3.org/2000/svg">
<path d="M4.67996 2.4V16.8L6.52797 17.28C6.57596 17.584 6.53596 17.864 6.40797 18.12C4.96797 18.04 3.99197 18 3.47996 18C2.77596 18 1.67996 18.04 0.191965 18.12C0.143965 17.784 0.159965 17.504 0.239965 17.28C1.11996 17.168 1.75996 17.008 2.15996 16.8V2.4L0.311965 1.92C0.263965 1.616 0.303965 1.336 0.431965 1.08C1.87196 1.16 2.84797 1.2 3.35997 1.2C4.07997 1.2 5.17597 1.16 6.64796 1.08C6.69597 1.4 6.67997 1.68 6.59996 1.92C5.76797 2.064 5.12797 2.224 4.67996 2.4ZM15.6928 16.68H21.4528L22.1008 13.728C22.4368 13.664 22.7248 13.688 22.9648 13.8C23.1248 14.968 23.2048 16.368 23.2048 18H14.4928C13.8528 18 12.7888 18.04 11.3008 18.12C11.2528 17.816 11.2688 17.536 11.3488 17.28C12.2768 17.104 12.8848 16.944 13.1728 16.8V2.4L11.3248 1.92C11.2768 1.616 11.3168 1.336 11.4448 1.08C12.8848 1.16 13.8608 1.2 14.3728 1.2C15.0928 1.2 16.1888 1.16 17.6608 1.08C17.7088 1.384 17.6928 1.664 17.6128 1.92C16.7648 2 16.1248 2.16 15.6928 2.4V16.68ZM31.7212 16.68H37.4812L38.1292 13.728C38.4652 13.664 38.7532 13.688 38.9932 13.8C39.1532 14.968 39.2332 16.368 39.2332 18H30.5212C29.8812 18 28.8172 18.04 27.3292 18.12C27.2812 17.816 27.2972 17.536 27.3772 17.28C28.3052 17.104 28.9132 16.944 29.2012 16.8V2.4L27.3532 1.92C27.3052 1.616 27.3452 1.336 27.4732 1.08C28.9132 1.16 29.8892 1.2 30.4012 1.2C31.1212 1.2 32.2172 1.16 33.6892 1.08C33.7372 1.384 33.7212 1.664 33.6412 1.92C32.7932 2 32.1532 2.16 31.7212 2.4V16.68ZM57.4307 2.4V11.4C57.4307 12.824 57.3027 13.976 57.0467 14.856C56.8067 15.736 56.4467 16.44 55.9667 16.968C55.4867 17.496 54.8627 17.88 54.0947 18.12C53.3267 18.36 52.3667 18.48 51.2147 18.48C50.0627 18.48 49.0787 18.376 48.2627 18.168C47.4467 17.976 46.7507 17.632 46.1747 17.136C45.6147 16.624 45.1907 15.928 44.9027 15.048C44.6147 14.152 44.4707 13.016 44.4707 11.64V2.4L42.6227 1.92C42.5747 1.616 42.6147 1.336 42.7427 1.08C44.1827 1.16 45.1587 1.2 45.6707 1.2C46.3907 1.2 47.4867 1.16 48.9587 1.08C49.0067 1.384 48.9907 1.664 48.9107 1.92C48.0787 2.032 47.4387 2.192 46.9907 2.4V12.36C46.9747 15.656 48.5827 17.296 51.8147 17.28C52.4227 17.28 52.9507 17.208 53.3987 17.064C53.8627 16.92 54.2547 16.712 54.5747 16.44C54.9107 16.152 55.1587 15.848 55.3187 15.528C55.4947 15.208 55.6307 14.888 55.7267 14.568C55.8387 14.232 55.9267 13.808 55.9907 13.296C56.0547 12.768 56.0867 12.336 56.0867 12C56.1027 11.664 56.1107 11.224 56.1107 10.68V2.4L54.2627 1.92C54.2147 1.616 54.2547 1.336 54.3827 1.08C55.5027 1.16 56.3187 1.2 56.8307 1.2C57.3747 1.2 58.2307 1.16 59.3987 1.08C59.4467 1.4 59.4307 1.68 59.3507 1.92C58.4387 2.048 57.7987 2.208 57.4307 2.4ZM74.6655 11.64L78.5775 1.68V1.2H80.0175C80.7375 1.2 81.8335 1.16 83.3055 1.08C83.3535 1.384 83.3375 1.664 83.2575 1.92C82.3775 2.064 81.7375 2.224 81.3375 2.4L82.5375 16.8L84.3855 17.28C84.4335 17.584 84.3935 17.864 84.2655 18.12C82.8255 18.04 81.8495 18 81.3375 18C80.6335 18 79.5375 18.04 78.0495 18.12C78.0015 17.8 78.0175 17.52 78.0975 17.28C79.1535 17.136 79.7935 16.976 80.0175 16.8L79.0095 6.288C78.9775 5.984 78.9615 5.536 78.9615 4.944C78.9615 4.448 78.9695 4.08 78.9855 3.84H78.9135C78.6575 4.8 78.4015 5.616 78.1455 6.288L73.8015 17.256C73.4815 17.432 73.1935 17.512 72.9375 17.496L68.2095 6.288C68.0015 5.792 67.7375 4.976 67.4175 3.84H67.3455L67.2735 6.312L66.6735 16.824L68.5215 17.304C68.5695 17.608 68.5295 17.888 68.4015 18.144C68.2095 18.128 67.9455 18.104 67.6095 18.072C67.2735 18.056 66.9615 18.04 66.6735 18.024C66.4015 18.008 66.1375 18 65.8815 18C65.3375 18 64.4815 18.04 63.3135 18.12C63.2655 17.816 63.2815 17.536 63.3615 17.28C64.0655 17.184 64.6895 17.024 65.2335 16.8L66.1935 2.4L64.3455 1.92C64.2975 1.616 64.3375 1.336 64.4655 1.08C65.9055 1.16 66.8815 1.2 67.3935 1.2H68.9535V1.68L72.8655 11.64C73.1535 12.312 73.4415 13.256 73.7295 14.472H73.7775C74.0655 13.368 74.3615 12.424 74.6655 11.64ZM93.0487 2.4V16.8L94.8967 17.28C94.9447 17.584 94.9047 17.864 94.7767 18.12C93.3367 18.04 92.3607 18 91.8487 18C91.1447 18 90.0487 18.04 88.5607 18.12C88.5127 17.784 88.5287 17.504 88.6087 17.28C89.4887 17.168 90.1287 17.008 90.5287 16.8V2.4L88.6807 1.92C88.6327 1.616 88.6727 1.336 88.8007 1.08C90.2407 1.16 91.2167 1.2 91.7287 1.2C92.4487 1.2 93.5447 1.16 95.0167 1.08C95.0647 1.4 95.0487 1.68 94.9687 1.92C94.1367 2.064 93.4967 2.224 93.0487 2.4ZM112.894 2.4L111.046 1.92C110.998 1.616 111.038 1.336 111.166 1.08C112.206 1.16 113.006 1.2 113.566 1.2C114.174 1.2 115.054 1.16 116.206 1.08C116.254 1.384 116.238 1.664 116.158 1.92C115.326 2.064 114.686 2.224 114.238 2.4V18.48C114.062 18.592 113.902 18.672 113.758 18.72L104.206 6.6C103.886 6.216 103.414 5.456 102.79 4.32H102.718C102.798 4.816 102.838 5.6 102.838 6.672V16.8L104.686 17.304C104.734 17.608 104.694 17.888 104.566 18.144C104.374 18.128 104.11 18.104 103.774 18.072C103.438 18.056 103.126 18.04 102.838 18.024C102.566 18.008 102.302 18 102.046 18C101.886 18 101.07 18.04 99.5975 18.12C99.5495 17.816 99.5655 17.536 99.6455 17.28C100.254 17.184 100.878 17.024 101.518 16.8V2.4L99.6695 1.92C99.6215 1.616 99.6615 1.336 99.7895 1.08C101.23 1.16 102.206 1.2 102.718 1.2H103.678L104.278 2.448L111.694 11.976C112.078 12.472 112.51 13.256 112.99 14.328H113.062C113.03 13.944 113.006 13.656 112.99 13.464C112.974 13.272 112.958 13.056 112.942 12.816C112.926 12.576 112.918 12.312 112.918 12.024L112.894 2.4ZM129.843 12.24H124.275L122.715 16.8L124.563 17.28C124.611 17.584 124.571 17.864 124.443 18.12C123.003 18.04 122.027 18 121.515 18C121.243 18 120.979 18.008 120.723 18.024C120.467 18.04 120.219 18.056 119.979 18.072C119.739 18.088 119.515 18.104 119.307 18.12C119.259 17.816 119.275 17.536 119.355 17.28C120.075 17.184 120.691 17.024 121.203 16.8L126.891 0.743999C127.131 0.615999 127.443 0.551999 127.827 0.551999L134.331 16.8L136.179 17.28C136.227 17.584 136.187 17.864 136.059 18.12C134.619 18.04 133.643 18 133.131 18C132.299 18 131.139 18.04 129.651 18.12C129.603 17.816 129.619 17.536 129.699 17.28C130.451 17.184 131.091 17.024 131.619 16.8L129.843 12.24ZM126.939 4.08H126.891C126.395 5.856 126.043 7.04 125.835 7.632L124.707 10.92H129.315L127.995 7.512C127.483 6.328 127.131 5.184 126.939 4.08ZM143.169 16.8V2.28H139.425L138.729 5.712C138.345 5.776 138.025 5.752 137.769 5.64C137.561 3.8 137.481 2.32 137.529 1.2H151.569C151.617 2.48 151.529 3.96 151.305 5.64C151.049 5.752 150.729 5.776 150.345 5.712L149.649 2.28H145.689V16.8L147.681 17.28C147.729 17.584 147.689 17.864 147.561 18.12C146.121 18.04 145.097 18 144.489 18C143.769 18 142.673 18.04 141.201 18.12C141.153 17.8 141.169 17.52 141.249 17.28C141.873 17.2 142.513 17.04 143.169 16.8ZM164.65 10.08H160.186V16.92H167.146L167.65 13.728C167.97 13.664 168.25 13.688 168.49 13.8C168.714 14.744 168.81 16.144 168.778 18H158.986C158.346 18 157.282 18.04 155.794 18.12C155.746 17.816 155.762 17.536 155.842 17.28C156.674 17.12 157.282 16.96 157.666 16.8V2.4L155.818 1.92C155.77 1.616 155.81 1.336 155.938 1.08C157.378 1.16 158.354 1.2 158.866 1.2H168.106C168.138 2.832 168.05 4.232 167.842 5.4C167.602 5.496 167.314 5.52 166.978 5.472L166.354 2.28H160.186V8.76H164.65L165.106 6.648C165.474 6.536 165.794 6.576 166.066 6.768C166.002 7.392 165.97 8.248 165.97 9.336C165.97 10.536 166.002 11.48 166.066 12.168C165.778 12.28 165.458 12.296 165.106 12.216L164.65 10.08ZM178.906 18.456C176.746 18.456 175.074 18.176 173.89 17.616C173.89 16.192 174.098 14.8 174.514 13.44C174.546 13.44 174.594 13.44 174.658 13.44C174.722 13.424 174.778 13.416 174.826 13.416C175.114 13.416 175.362 13.464 175.57 13.56L175.954 16.752C176.962 16.992 177.826 17.112 178.546 17.112C179.106 17.112 179.682 17.048 180.274 16.92C180.866 16.792 181.378 16.528 181.81 16.128C182.258 15.728 182.482 15.184 182.482 14.496C182.482 13.872 182.386 13.368 182.194 12.984C182.018 12.6 181.594 12.184 180.922 11.736C180.266 11.272 179.234 10.736 177.826 10.128C176.386 9.488 175.37 8.808 174.778 8.088C174.202 7.352 173.93 6.368 173.962 5.136C173.978 3.728 174.57 2.656 175.738 1.92C176.906 1.184 178.37 0.816 180.13 0.816C181.618 0.816 182.978 1.056 184.21 1.536C184.258 2.752 184.01 4.104 183.466 5.592C183.402 5.608 183.298 5.616 183.154 5.616C182.882 5.616 182.634 5.568 182.41 5.472L182.146 2.28C181.426 2.072 180.706 1.968 179.986 1.968C178.93 1.968 178.042 2.2 177.322 2.664C176.618 3.112 176.258 3.8 176.242 4.728C176.226 5.464 176.434 6.064 176.866 6.528C177.314 6.992 178.25 7.544 179.674 8.184C180.714 8.648 181.522 9.04 182.098 9.36C182.674 9.664 183.194 10.032 183.658 10.464C184.138 10.88 184.482 11.36 184.69 11.904C184.898 12.448 185.002 13.088 185.002 13.824C184.97 15.312 184.354 16.456 183.154 17.256C181.954 18.056 180.538 18.456 178.906 18.456Z" fill="url(#paint0_linear)"/>
<defs>
<linearGradient id="paint0_linear" x1="13.2413" y1="16.7797" x2="47.3327" y2="-58.8052" gradientUnits="userSpaceOnUse">
<stop stop-color="#31DEE0"/>
<stop offset="1" stop-color="#3B7F8A"/>
</linearGradient>
</defs>
</svg>
