<svg width="24" height="13" viewBox="0 0 24 13" fill="none" xmlns="http://www.w3.org/2000/svg">
<g filter="url(#filter0_d)">
<path d="M21.189 5.73417C21.3843 5.53891 21.3843 5.22232 21.189 5.02706L18.007 1.84508C17.8118 1.64982 17.4952 1.64982 17.2999 1.84508C17.1046 2.04034 17.1046 2.35693 17.2999 2.55219L20.1283 5.38062L17.2999 8.20904C17.1046 8.4043 17.1046 8.72089 17.2999 8.91615C17.4952 9.11141 17.8118 9.11141 18.007 8.91615L21.189 5.73417ZM2 5.88062H20.8354V4.88062H2V5.88062Z" fill="#31DEE0"/>
</g>
<defs>
<filter id="filter0_d" x="0" y="0.69873" width="23.3354" height="11.364" filterUnits="userSpaceOnUse" color-interpolation-filters="sRGB">
<feFlood flood-opacity="0" result="BackgroundImageFix"/>
<feColorMatrix in="SourceAlpha" type="matrix" values="0 0 0 0 0 0 0 0 0 0 0 0 0 0 0 0 0 0 127 0"/>
<feOffset dy="1"/>
<feGaussianBlur stdDeviation="1"/>
<feColorMatrix type="matrix" values="0 0 0 0 0 0 0 0 0 0 0 0 0 0 0 0 0 0 0.25 0"/>
<feBlend mode="normal" in2="BackgroundImageFix" result="effect1_dropShadow"/>
<feBlend mode="normal" in="SourceGraphic" in2="effect1_dropShadow" result="shape"/>
</filter>
</defs>
</svg>

