<svg width="16" height="12" viewBox="0 0 16 12" fill="none" xmlns="http://www.w3.org/2000/svg">
<path fill-rule="evenodd" clip-rule="evenodd" d="M13.9334 12H1.99049C0.891171 12 0 11.1047 0 10.0004V2.00184C0 0.897472 0.891171 0.00220578 1.99049 0.00220578H14.5969C15.1924 -0.0321113 15.7375 0.33693 15.9294 0.904291C16.1212 1.47165 15.9127 2.0979 15.4196 2.43509L9.24913 7.20088C8.50265 7.77737 7.4562 7.74955 6.74111 7.13423L2.91274 3.8415C2.73259 3.68671 2.64832 3.44713 2.69168 3.213C2.73504 2.97888 2.89944 2.78577 3.12295 2.70643C3.34647 2.62709 3.59514 2.67357 3.77529 2.82835L7.60366 6.12108C7.84728 6.31963 8.19604 6.31963 8.43966 6.12108L14.6102 1.35529L1.99049 1.33529C1.62405 1.33529 1.32699 1.63372 1.32699 2.00184V10.0004C1.32699 10.3685 1.62405 10.6669 1.99049 10.6669H13.9334C14.2998 10.6669 14.5969 10.3685 14.5969 10.0004V4.66801C14.5969 4.29989 14.894 4.00147 15.2604 4.00147C15.6268 4.00147 15.9239 4.29989 15.9239 4.66801V10.0004C15.9239 11.1047 15.0327 12 13.9334 12Z" fill="#393939"/>
</svg>
