<svg width="12" height="18" viewBox="0 0 12 18" fill="none" xmlns="http://www.w3.org/2000/svg">
<path d="M0 0.359016C0 0.0530014 0.315854 -0.112196 0.520491 0.0867891L11.8897 8.72777C12.0368 8.87079 12.0368 9.12921 11.8897 9.27223L0.520492 17.9132C0.315854 18.1122 0 17.947 0 17.641V0.359016Z" fill="white"/>
</svg>
