<svg width="202" height="30" viewBox="0 0 202 30" fill="none" xmlns="http://www.w3.org/2000/svg">
<path d="M100.693 22.7274V2.42432H107.738C111.184 2.42432 114.17 4.92432 114.17 8.48492C114.17 12.0455 111.184 14.5455 107.738 14.5455H103.373V22.6516L100.693 22.7274ZM107.815 11.9698C110.188 11.9698 111.49 10.0001 111.49 8.40918C111.49 6.81827 110.188 4.84857 107.815 4.84857H103.373V11.9698H107.815Z" fill="#BFD8D8"/>
<path d="M114.936 18.4848C114.936 15.303 117.845 13.6364 121.138 13.6364C123.052 13.6364 124.431 14.1667 124.967 14.4697V14.0909C124.967 11.9697 123.282 10.6818 121.291 10.6818C119.836 10.6818 118.381 11.3636 117.922 12.6515L115.548 11.6667C116.008 10.3788 117.692 8.25757 121.291 8.25757C124.737 8.25757 127.57 10.303 127.57 14.2424V22.6515H125.043V20.6818H124.967C124.201 21.8939 122.746 23.0303 120.372 23.0303C117.309 23.1818 114.936 21.3636 114.936 18.4848ZM124.89 16.6667C124.89 16.6667 123.741 15.7576 121.521 15.7576C118.764 15.7576 117.692 17.197 117.692 18.4848C117.692 19.9242 119.3 20.6818 120.602 20.6818C122.669 20.7576 124.89 18.9394 124.89 16.6667Z" fill="#BFD8D8"/>
<path d="M132.702 11.0606H132.778C133.467 9.3939 135.305 8.40905 137.219 8.40905C137.755 8.40905 137.909 8.48479 138.138 8.48479V11.0606C137.602 10.9848 137.602 10.9848 137.066 10.9848C134.616 10.9848 132.702 12.4999 132.702 15.0757V22.7272H130.021V8.78784H132.548V11.0606H132.702ZM142.58 18.4848V11.1363H140.129V8.78784H142.58V4.54541H145.26V8.78784H148.705V11.1363H145.26V18.2575C145.26 19.8484 145.949 20.5303 147.174 20.5303C147.633 20.5303 148.016 20.4545 148.399 20.303L149.318 22.5757C148.705 22.8787 148.093 22.9545 147.174 22.9545C144.188 22.9545 142.58 21.2878 142.58 18.4848Z" fill="#BFD8D8"/>
<path d="M153.453 10.7576H153.53C154.295 9.46977 156.057 8.40918 157.971 8.40918C161.57 8.40918 163.331 10.8334 163.331 14.2425V22.7274H160.651V14.6213C160.651 11.7425 159.196 10.7576 157.205 10.7576C154.908 10.7576 153.53 12.8789 153.53 15.0758V22.8031H150.85V8.86371H153.377L153.453 10.7576Z" fill="#BFD8D8"/>
<path d="M165.398 15.7575C165.398 11.8181 168.155 8.33325 172.29 8.33325C176.502 8.33325 179.182 11.212 179.182 15.7575C179.182 15.9848 179.105 16.212 179.105 16.212H168.002C168.155 19.1666 170.299 20.7575 172.443 20.7575C174.051 20.7575 175.506 20.0757 176.272 18.409L178.646 19.3939C177.803 21.3636 175.736 23.1817 172.52 23.1817C168.232 23.1817 165.398 19.9241 165.398 15.7575ZM172.213 10.7575C170.223 10.7575 168.768 12.0454 168.155 14.0908H176.348C176.272 12.803 175.276 10.7575 172.213 10.7575Z" fill="#BFD8D8"/>
<path d="M181.325 22.7274V8.78797H183.852V11.0607H183.929C184.541 9.46979 186.532 8.40918 187.987 8.40918C188.829 8.40918 189.365 8.48493 189.978 8.71221L188.983 11.1364C188.6 10.9849 188.14 10.9092 187.604 10.9092C185.843 10.9092 183.929 12.4243 183.929 15.0001V22.6516L181.325 22.7274Z" fill="#BFD8D8"/>
<path d="M190.36 19.1666L192.734 18.1817C193.5 19.9242 194.878 20.8332 196.563 20.8332C198.171 20.8332 199.396 19.9999 199.396 18.8635C199.396 18.1817 198.937 17.4242 197.482 17.0454L194.648 16.3636C193.347 16.0605 190.896 14.9999 190.896 12.4999C190.896 9.99992 193.576 8.33325 196.41 8.33325C198.86 8.33325 201.004 9.46961 201.846 11.5908L199.549 12.4999C199.013 11.212 197.711 10.6817 196.333 10.6817C194.878 10.6817 193.576 11.3635 193.576 12.4242C193.576 13.2575 194.342 13.7878 195.414 14.0151L198.171 14.6969C200.927 15.3787 201.999 17.0454 201.999 18.7878C201.999 21.2878 199.779 23.1817 196.486 23.1817C193.117 23.1817 191.203 21.1363 190.36 19.1666Z" fill="#BFD8D8"/>
<path d="M11.8686 22.8032C5.58962 22.8032 0.229492 17.7274 0.229492 11.4396C0.229492 5.22744 5.58962 0.0759277 11.8686 0.0759277C15.3144 0.0759277 17.8413 1.43955 19.7556 3.18197L17.535 5.37896C16.1567 4.16684 14.3955 3.18197 11.8686 3.18197C7.27423 3.18197 3.67528 6.81835 3.67528 11.4396C3.67528 16.0608 7.27423 19.6971 11.8686 19.6971C14.855 19.6971 16.5396 18.485 17.6882 17.4244C18.5305 16.5911 19.1431 15.3032 19.3728 13.485H11.8686V10.4547H22.4357C22.5123 10.985 22.5889 11.6668 22.5889 12.4244C22.5889 14.7729 21.8997 17.6517 19.8322 19.6971C17.8413 21.6668 15.2378 22.8032 11.8686 22.8032Z" fill="#BFD8D8"/>
<path d="M38.4392 15.4547C38.4392 19.6214 35.1465 22.8032 31.0116 22.8032C26.8766 22.8032 23.584 19.6971 23.584 15.4547C23.584 11.2123 26.8766 8.1062 31.0116 8.1062C35.1465 8.1062 38.4392 11.2123 38.4392 15.4547ZM35.2231 15.4547C35.2231 12.8032 33.3088 11.0608 31.0881 11.0608C28.8675 11.0608 26.9532 12.8032 26.9532 15.4547C26.9532 18.0305 28.8675 19.8486 31.0881 19.8486C33.3088 19.8486 35.2231 18.0305 35.2231 15.4547Z" fill="#BFD8D8"/>
<path d="M54.3669 15.4547C54.3669 19.6214 51.0743 22.8032 46.9393 22.8032C42.8044 22.8032 39.5117 19.6971 39.5117 15.4547C39.5117 11.2123 42.8044 8.1062 46.9393 8.1062C51.0743 8.1062 54.3669 11.2123 54.3669 15.4547ZM51.1508 15.4547C51.1508 12.8032 49.2365 11.0608 47.0159 11.0608C44.7953 11.0608 42.881 12.8032 42.881 15.4547C42.881 18.0305 44.7953 19.8486 47.0159 19.8486C49.2365 19.8486 51.1508 18.0305 51.1508 15.4547Z" fill="#BFD8D8"/>
<path d="M69.7584 8.56056V21.6666C69.7584 27.0454 66.5423 29.3181 62.7137 29.3181C59.1147 29.3181 56.9707 26.9697 56.205 25L59.0382 23.7878C59.4976 25 60.7994 26.3636 62.7137 26.3636C65.164 26.3636 66.6955 24.8485 66.6955 22.0454V20.9848H66.6189C65.9298 21.8181 64.4749 22.6515 62.7137 22.6515C59.0382 22.6515 55.6689 19.4697 55.6689 15.3787C55.6689 11.2121 59.0382 8.03027 62.7137 8.03027C64.4749 8.03027 65.8532 8.78783 66.6189 9.62116H66.6955V8.40906C66.6955 8.56058 69.7584 8.56056 69.7584 8.56056ZM66.9252 15.5303C66.9252 12.9545 65.164 11.0606 62.9434 11.0606C60.7228 11.0606 58.8084 12.9545 58.8084 15.5303C58.8084 18.0303 60.6462 19.9242 62.9434 19.9242C65.164 19.8484 66.9252 18.0303 66.9252 15.5303Z" fill="#BFD8D8"/>
<path d="M75.194 0.833496V22.2729H71.9014V0.833496H75.194Z" fill="#BFD8D8"/>
<path d="M87.5994 17.8789L90.1263 19.5456C89.284 20.7577 87.3697 22.8032 84.0004 22.8032C79.7889 22.8032 76.6494 19.5456 76.6494 15.4547C76.6494 11.0608 79.7889 8.1062 83.6176 8.1062C87.4462 8.1062 89.3606 11.1365 89.8966 12.7274L90.2029 13.5608L80.3249 17.5759C81.0907 19.0153 82.3158 19.7729 83.9239 19.7729C85.5319 19.8486 86.6805 19.0911 87.5994 17.8789ZM79.7889 15.2274L86.3742 12.5002C85.9913 11.5911 84.9193 10.9092 83.6176 10.9092C82.0095 10.985 79.7123 12.4244 79.7889 15.2274Z" fill="#BFD8D8"/>
</svg>
