<svg width="112" height="30" viewBox="0 0 112 30" fill="none" xmlns="http://www.w3.org/2000/svg">
<path fill-rule="evenodd" clip-rule="evenodd" d="M10.2441 19.3333V3.71973H13.2344V5.18833C14.4014 3.48785 15.6412 3.33325 17.4646 3.33325H17.7563V6.73423L17.3917 6.65693C17.027 6.57963 16.6623 6.50234 16.3706 6.50234C14.4014 6.50234 13.2344 7.97093 13.2344 10.4444V19.256H10.2441V19.3333Z" fill="#2EA6DB"/>
<path fill-rule="evenodd" clip-rule="evenodd" d="M59.1865 19.3333L53.6472 12.8112V19.3333H50.5361V0H53.6472V10.0161L59.2624 3.64926H63.4359L56.5307 11.1807L63.5117 19.3333H59.1865Z" fill="#2EA6DB"/>
<path d="M68.2926 4H64.8779V19.3333H68.2926V4Z" fill="#2EA6DB"/>
<path fill-rule="evenodd" clip-rule="evenodd" d="M5.76693 19.3333C3.1111 19.3333 2.04878 18.4016 2.04878 15.7617V6.52209H0V3.64926H2.04878V0H5.15989V3.64926H7.5122V6.52209H5.15989V15.4511C5.15989 16.0723 5.23578 16.2276 6.07047 16.2276H7.5122V19.178H7.20868C6.98103 19.3333 6.37397 19.3333 5.76693 19.3333Z" fill="#2EA6DB"/>
<path fill-rule="evenodd" clip-rule="evenodd" d="M43.4609 19.3333C38.908 19.3333 35.5127 15.9209 35.5127 11.3712C35.5127 6.97307 39.0624 3.33325 43.4609 3.33325C45.8531 3.33325 47.8594 4.31903 48.9397 5.22899L49.1712 5.45648L47.0105 7.88301L46.7791 7.65552C45.7759 6.74557 44.7727 6.2906 43.538 6.2906C41.223 6.2906 38.908 7.88301 38.908 11.447C38.908 14.2527 40.9915 16.3759 43.7696 16.3759C44.7727 16.3759 45.9302 15.8451 46.9334 14.9351L47.1649 14.7077L49.0169 16.9825L48.8626 17.1342C47.4736 18.575 45.5444 19.3333 43.4609 19.3333Z" fill="#2EA6DB"/>
<path fill-rule="evenodd" clip-rule="evenodd" d="M91.1105 19.3333V9.77986C91.1105 7.6051 89.9857 6.36237 87.9771 6.36237C85.7274 6.36237 84.3616 7.76044 84.3616 9.9352V19.3333H81.0675V9.77986C81.0675 7.6051 79.9426 6.36237 77.934 6.36237C75.6844 6.36237 74.3185 7.76044 74.3185 9.9352V19.3333H71.0244V3.64393H74.3185V4.80898C75.2826 3.7216 76.9699 3.33325 78.3357 3.33325C79.6212 3.33325 81.5495 3.56626 82.9154 5.66335C83.8795 4.18762 85.6471 3.33325 87.9771 3.33325C91.8336 3.33325 94.2439 5.74102 94.2439 9.54685V19.3333H91.1105V19.3333Z" fill="#2EA6DB"/>
<path fill-rule="evenodd" clip-rule="evenodd" d="M25.9895 6.22849C23.0654 6.22849 20.9108 8.43801 20.9108 11.2571C20.9108 13.3142 22.2959 16.2856 25.9895 16.2856C28.144 16.2856 29.8369 15.1428 30.5295 13.238C30.8373 12.6285 30.9912 11.9428 30.9912 11.2571C30.9912 10.5713 30.9142 9.88564 30.6064 9.27611C29.9139 7.37135 28.0671 6.22849 25.9895 6.22849ZM25.7586 19.3333C20.603 19.3333 17.7559 15.219 17.7559 11.3333C17.7559 6.76182 21.2186 3.33325 25.7586 3.33325C27.7593 3.33325 29.683 4.09515 30.9912 5.39039V3.7142H34.1461V18.9523H30.9912V17.2761C29.683 18.6475 27.8362 19.3333 25.7586 19.3333Z" fill="#2EA6DB"/>
<path fill-rule="evenodd" clip-rule="evenodd" d="M103.804 30L108.585 20H98.3408L103.804 30Z" fill="#ED4A59"/>
<path fill-rule="evenodd" clip-rule="evenodd" d="M103.503 16.4242C100.406 16.4242 98.1032 14.2806 98.1032 11.3715C98.1032 8.53899 100.485 6.3189 103.503 6.3189C106.521 6.3189 108.903 8.53899 108.903 11.3715C108.903 14.2806 106.6 16.4242 103.503 16.4242ZM103.503 3.33325C98.8178 3.33325 94.9268 7.00789 94.9268 11.6012C94.9268 12.9792 95.3238 14.3572 96.0385 15.5821L97.9443 19.3333H108.982L110.888 15.6586L110.968 15.5055C111.682 14.2806 112 12.9026 112 11.5246C112 7.0079 108.188 3.33325 103.503 3.33325Z" fill="#ED4A59"/>
<path fill-rule="evenodd" clip-rule="evenodd" d="M6.18624 25.174H4.74005C3.93661 25.174 3.53489 25.4526 3.53489 26.0098C3.53489 26.567 3.93661 26.776 4.74005 26.776C5.22212 26.776 5.62384 26.776 5.94521 26.4974C6.1059 26.358 6.18624 26.0794 6.18624 25.7312V25.174ZM6.18624 27.2635V26.8456C5.78452 27.1939 5.3828 27.3332 4.6597 27.3332C3.9366 27.3332 3.53489 27.1939 3.13317 26.9153C2.89213 26.7063 2.73145 26.358 2.73145 26.0098C2.73145 25.2436 3.37419 24.6864 4.57935 24.6864H6.18624V24.2685C6.18624 23.572 5.78453 23.2934 4.8204 23.2934C4.17765 23.2934 3.77592 23.4327 3.45454 23.7809L2.89213 23.363C3.3742 22.8058 3.93661 22.6665 4.74005 22.6665C6.18625 22.6665 6.82901 23.2237 6.82901 24.1988V27.3332H6.18624V27.2635Z" fill="#2EA6DB"/>
<path fill-rule="evenodd" clip-rule="evenodd" d="M13.0606 27.3333C12.1216 27.3333 11.6094 26.7986 11.6094 25.9583V20H12.463V25.8819C12.463 26.3403 12.6338 26.6458 13.2313 26.6458H13.6582V27.257H13.0606V27.3333Z" fill="#2EA6DB"/>
<path fill-rule="evenodd" clip-rule="evenodd" d="M22.4338 27.3332H21.773L20.5246 23.7271L19.2028 27.3332H18.5419L17.0732 22.6665H17.8076L18.9091 26.414L20.1574 22.6665H20.8183L22.0667 26.414L23.1682 22.6665H23.9025L22.4338 27.3332Z" fill="#2EA6DB"/>
<path fill-rule="evenodd" clip-rule="evenodd" d="M31.4548 25.174H30.0086C29.2052 25.174 28.8034 25.4526 28.8034 26.0098C28.8034 26.567 29.2052 26.776 30.0086 26.776C30.4907 26.776 30.8924 26.776 31.2138 26.4974C31.3745 26.358 31.4548 26.0794 31.4548 25.7312V25.174ZM31.4548 27.2635V26.8456C31.0531 27.1939 30.6514 27.3332 29.9283 27.3332C29.2052 27.3332 28.8034 27.1939 28.4017 26.9153C28.1607 26.7063 28 26.358 28 26.0098C28 25.2436 28.6428 24.6864 29.8479 24.6864H31.4548V24.2685C31.4548 23.572 31.0531 23.2934 30.089 23.2934C29.4462 23.2934 29.0445 23.4327 28.7231 23.7809L28.1607 23.363C28.6428 22.8058 29.2052 22.6665 30.0086 22.6665C31.4548 22.6665 32.0976 23.2237 32.0976 24.1988V27.3332H31.4548V27.2635Z" fill="#2EA6DB"/>
<path fill-rule="evenodd" clip-rule="evenodd" d="M38.1709 28.9857C38.0977 29.2977 37.9514 29.4537 37.8051 29.6098C37.5855 29.8438 37.2197 29.9998 36.8538 29.9998H36.5612V29.2977H36.7807C37.2929 29.2977 37.4392 29.1417 37.5856 28.6736L37.9514 27.6594L36.1953 22.6665H36.927L38.2441 26.8013L39.5612 22.6665H40.2929L38.1709 28.9857Z" fill="#2EA6DB"/>
<path fill-rule="evenodd" clip-rule="evenodd" d="M46.5086 27.3332C45.6457 27.3332 44.9397 27.1242 44.3906 26.7063L44.8613 26.2884C45.2535 26.6367 45.8027 26.8456 46.4302 26.8456C47.2931 26.8456 47.8422 26.567 47.8422 26.0098C47.8422 25.5919 47.6069 25.3829 46.9793 25.3133L46.1164 25.2436C45.0966 25.174 44.5475 24.7561 44.5475 23.9899C44.5475 23.1541 45.332 22.6665 46.4302 22.6665C47.1362 22.6665 47.8422 22.8058 48.3129 23.1541L47.8422 23.572C47.45 23.2934 46.9793 23.2237 46.4302 23.2237C45.6458 23.2237 45.2535 23.5023 45.2535 23.9899C45.2535 24.4078 45.4889 24.6167 46.1164 24.6864L46.9793 24.7561C47.9207 24.8257 48.4698 25.1043 48.4698 26.0098C48.6267 26.776 47.7638 27.3332 46.5086 27.3332Z" fill="#2EA6DB"/>
<path fill-rule="evenodd" clip-rule="evenodd" d="M60.183 27.3334C59.2439 27.3334 58.7318 26.7133 58.7318 25.9381V22.8373H58.0488V22.2946H58.7318V20.6667H59.5854V22.2946H60.7805V22.8373H59.5854V25.9381C59.5854 26.4032 59.8415 26.7133 60.3537 26.7133H60.7805V27.3334H60.183Z" fill="#2EA6DB"/>
<path fill-rule="evenodd" clip-rule="evenodd" d="M68.1875 27.3333V24.1684C68.1875 23.2421 67.7147 22.8561 66.9267 22.8561C66.1387 22.8561 65.6659 23.3193 65.6659 24.1684V27.3333H64.8779V20H65.6659V22.8561C66.0599 22.4702 66.5327 22.2386 67.0843 22.2386C68.2663 22.2386 68.9755 22.9333 68.9755 24.0912V27.3333H68.1875V27.3333Z" fill="#2EA6DB"/>
<path fill-rule="evenodd" clip-rule="evenodd" d="M76.9429 23.9998C76.7152 23.5292 76.3358 23.2155 75.8047 23.2155C75.2735 23.2155 74.8182 23.5292 74.6664 23.9998C74.5906 24.3136 74.5147 24.4704 74.5147 24.8626H77.1705C77.0946 24.4704 77.0946 24.3136 76.9429 23.9998ZM74.5147 25.49C74.5147 26.5881 75.0458 27.2939 75.9564 27.2939C76.5634 27.2939 76.867 27.1371 77.2464 26.7449L77.7775 27.2155C77.2464 27.7645 76.7911 27.9998 75.9564 27.9998C74.6664 27.9998 73.7559 27.2155 73.7559 25.3332C73.7559 23.6861 74.5147 22.6665 75.8047 22.6665C77.0946 22.6665 77.8534 23.6077 77.8534 25.1763V25.49H74.5147Z" fill="#2EA6DB"/>
<path fill-rule="evenodd" clip-rule="evenodd" d="M85.5052 23.6416C85.1948 23.363 85.0396 23.2934 84.6515 23.2934C83.8755 23.2934 83.4098 23.8506 83.4098 24.5471V27.3332H82.6338V22.7362H83.4098V23.2934C83.7203 22.9451 84.2635 22.6665 84.8068 22.6665C85.2724 22.6665 85.6604 22.7362 86.0484 23.0844L85.5052 23.6416Z" fill="#2EA6DB"/>
<path fill-rule="evenodd" clip-rule="evenodd" d="M92.7267 23.9998C92.4991 23.5292 92.1197 23.2155 91.5885 23.2155C91.0574 23.2155 90.6021 23.5292 90.4503 23.9998C90.3744 24.3136 90.2986 24.4704 90.2986 24.8626H92.9544C92.8026 24.4704 92.8026 24.3136 92.7267 23.9998ZM90.2227 25.49C90.2227 26.5881 90.7538 27.2939 91.6644 27.2939C92.2715 27.2939 92.575 27.1371 92.9544 26.7449L93.4855 27.2155C92.9544 27.7645 92.4991 27.9998 91.6644 27.9998C90.3744 27.9998 89.4639 27.2155 89.4639 25.3332C89.4639 23.6861 90.2227 22.6665 91.5126 22.6665C92.8026 22.6665 93.5614 23.6077 93.5614 25.1763V25.49H90.2227Z" fill="#2EA6DB"/>
</svg>
